Beta_Processor.sim/sim_1/behav/xsim/simulate.log
Time resolution is 1 ps

TEST 1: BEQ NOT TAKEN
IM[0]  BEQ  R2 == 0, target PC=28, R5=PC+4
IM[4]  ADDC R10 = R31 + 11
IM[28] ADDC R11 = R31 + 22
Input R2=00000009
Expected: no annul, R10=11, R5=4
------------------------------------------------------------
                   BEQ_NOT_TAKEN | CYCLE 1
reset=1 stall=0 annul=0 z=0 pcsel=00
PC=00000004 fetched=c15f000b opcode=011100
IF_ID_IR=70a20006
ID_EX_IR=00000000
EX_MEM_IR=00000000
MEM_WB_IR=00000000
RD1=00000009 RD1_bypass=00000009
WB WD=00000000 WA=0 WERF=0
------------------------------------------------------------
                   BEQ_NOT_TAKEN | CYCLE 2
reset=1 stall=0 annul=0 z=1 pcsel=00
PC=00000008 fetched=83fff800 opcode=110000
IF_ID_IR=c15f000b
ID_EX_IR=70a20006
EX_MEM_IR=00000000
MEM_WB_IR=00000000
RD1=00000000 RD1_bypass=00000000
WB WD=00000000 WA=0 WERF=0
------------------------------------------------------------
                   BEQ_NOT_TAKEN | CYCLE 3
reset=1 stall=0 annul=0 z=1 pcsel=00
PC=0000000c fetched=83fff800 opcode=100000
IF_ID_IR=83fff800
ID_EX_IR=c15f000b
EX_MEM_IR=70a20006
MEM_WB_IR=00000000
RD1=00000000 RD1_bypass=00000000
WB WD=00000000 WA=0 WERF=0
------------------------------------------------------------
                   BEQ_NOT_TAKEN | CYCLE 4
reset=1 stall=0 annul=0 z=1 pcsel=00
PC=00000010 fetched=83fff800 opcode=100000
IF_ID_IR=83fff800
ID_EX_IR=83fff800
EX_MEM_IR=c15f000b
MEM_WB_IR=70a20006
RD1=00000000 RD1_bypass=00000000
WB WD=00000004 WA=5 WERF=0
------------------------------------------------------------
                   BEQ_NOT_TAKEN | CYCLE 5
reset=1 stall=0 annul=0 z=1 pcsel=00
PC=00000014 fetched=83fff800 opcode=100000
IF_ID_IR=83fff800
ID_EX_IR=83fff800
EX_MEM_IR=83fff800
MEM_WB_IR=c15f000b
RD1=00000000 RD1_bypass=00000000
WB WD=0000000b WA=10 WERF=1
------------------------------------------------------------
                   BEQ_NOT_TAKEN | CYCLE 6
reset=1 stall=0 annul=0 z=1 pcsel=00
PC=00000018 fetched=83fff800 opcode=100000
IF_ID_IR=83fff800
ID_EX_IR=83fff800
EX_MEM_IR=83fff800
MEM_WB_IR=83fff800
RD1=00000000 RD1_bypass=00000000
WB WD=00000000 WA=31 WERF=1
------------------------------------------------------------
                   BEQ_NOT_TAKEN | CYCLE 7
reset=1 stall=0 annul=0 z=1 pcsel=00
PC=0000001c fetched=c17f0016 opcode=100000
IF_ID_IR=83fff800
ID_EX_IR=83fff800
EX_MEM_IR=83fff800
MEM_WB_IR=83fff800
RD1=00000000 RD1_bypass=00000000
WB WD=00000000 WA=31 WERF=1
------------------------------------------------------------
                   BEQ_NOT_TAKEN | CYCLE 8
reset=1 stall=0 annul=0 z=1 pcsel=00
PC=00000020 fetched=xxxxxxxx opcode=110000
IF_ID_IR=c17f0016
ID_EX_IR=83fff800
EX_MEM_IR=83fff800
MEM_WB_IR=83fff800
RD1=00000000 RD1_bypass=00000000
WB WD=00000000 WA=31 WERF=1
------------------------------------------------------------
                   BEQ_NOT_TAKEN | CYCLE 9
reset=1 stall=0 annul=0 z=x pcsel=00
PC=00000024 fetched=xxxxxxxx opcode=xxxxxx
IF_ID_IR=xxxxxxxx
ID_EX_IR=c17f0016
EX_MEM_IR=83fff800
MEM_WB_IR=83fff800
RD1=xxxxxxxx RD1_bypass=xxxxxxxx
WB WD=00000000 WA=31 WERF=1
FAIL               BEQ not taken link R5=PC+4 R5=00000000 expected=00000004
PASS               BEQ not taken fall-through R10=0000000b expected=0000000b
PASS                   BEQ not taken no annul annul_count=0 expected=0

TEST 2: BEQ TAKEN
IM[0]  BEQ  R2 == 0, target PC=28, R5=PC+4
IM[4]  ADDC R10 = R31 + 11
IM[28] ADDC R11 = R31 + 22
Input R2=00000000
Expected: annul fall-through, R10=0, R11=22, R5=4
------------------------------------------------------------
                       BEQ_TAKEN | CYCLE 1
reset=1 stall=0 annul=1 z=1 pcsel=01
PC=00000004 fetched=c15f000b opcode=011100
IF_ID_IR=70a20006
ID_EX_IR=00000000
EX_MEM_IR=00000000
MEM_WB_IR=00000000
RD1=00000000 RD1_bypass=00000000
WB WD=00000000 WA=0 WERF=0
------------------------------------------------------------
                       BEQ_TAKEN | CYCLE 2
reset=1 stall=0 annul=0 z=1 pcsel=00
PC=0000001c fetched=c17f0016 opcode=100000
IF_ID_IR=83fff800
ID_EX_IR=70a20006
EX_MEM_IR=00000000
MEM_WB_IR=00000000
RD1=00000000 RD1_bypass=00000000
WB WD=00000000 WA=0 WERF=0
------------------------------------------------------------
                       BEQ_TAKEN | CYCLE 3
reset=1 stall=0 annul=0 z=1 pcsel=00
PC=00000020 fetched=xxxxxxxx opcode=110000
IF_ID_IR=c17f0016
ID_EX_IR=83fff800
EX_MEM_IR=70a20006
MEM_WB_IR=00000000
RD1=00000000 RD1_bypass=00000000
WB WD=00000000 WA=0 WERF=0
------------------------------------------------------------
                       BEQ_TAKEN | CYCLE 4
reset=1 stall=0 annul=0 z=x pcsel=00
PC=00000024 fetched=xxxxxxxx opcode=xxxxxx
IF_ID_IR=xxxxxxxx
ID_EX_IR=c17f0016
EX_MEM_IR=83fff800
MEM_WB_IR=70a20006
RD1=xxxxxxxx RD1_bypass=xxxxxxxx
WB WD=00000004 WA=5 WERF=1
------------------------------------------------------------
                       BEQ_TAKEN | CYCLE 5
reset=1 stall=0 annul=0 z=x pcsel=00
PC=00000028 fetched=xxxxxxxx opcode=xxxxxx
IF_ID_IR=xxxxxxxx
ID_EX_IR=xxxxxxxx
EX_MEM_IR=c17f0016
MEM_WB_IR=83fff800
RD1=xxxxxxxx RD1_bypass=xxxxxxxx
WB WD=00000000 WA=31 WERF=1
------------------------------------------------------------
                       BEQ_TAKEN | CYCLE 6
reset=1 stall=0 annul=0 z=x pcsel=00
PC=0000002c fetched=xxxxxxxx opcode=xxxxxx
IF_ID_IR=xxxxxxxx
ID_EX_IR=xxxxxxxx
EX_MEM_IR=xxxxxxxx
MEM_WB_IR=c17f0016
RD1=xxxxxxxx RD1_bypass=xxxxxxxx
WB WD=00000016 WA=11 WERF=1
------------------------------------------------------------
                       BEQ_TAKEN | CYCLE 7
reset=1 stall=0 annul=0 z=x pcsel=00
PC=00000030 fetched=xxxxxxxx opcode=xxxxxx
IF_ID_IR=xxxxxxxx
ID_EX_IR=xxxxxxxx
EX_MEM_IR=xxxxxxxx
MEM_WB_IR=xxxxxxxx
RD1=xxxxxxxx RD1_bypass=xxxxxxxx
WB WD=00000024 WA=x WERF=0
------------------------------------------------------------
                       BEQ_TAKEN | CYCLE 8
reset=1 stall=0 annul=0 z=x pcsel=00
PC=00000034 fetched=xxxxxxxx opcode=xxxxxx
IF_ID_IR=xxxxxxxx
ID_EX_IR=xxxxxxxx
EX_MEM_IR=xxxxxxxx
MEM_WB_IR=xxxxxxxx
RD1=xxxxxxxx RD1_bypass=xxxxxxxx
WB WD=00000028 WA=x WERF=0
------------------------------------------------------------
                       BEQ_TAKEN | CYCLE 9
reset=1 stall=0 annul=0 z=x pcsel=00
PC=00000038 fetched=xxxxxxxx opcode=xxxxxx
IF_ID_IR=xxxxxxxx
ID_EX_IR=xxxxxxxx
EX_MEM_IR=xxxxxxxx
MEM_WB_IR=xxxxxxxx
RD1=xxxxxxxx RD1_bypass=xxxxxxxx
WB WD=0000002c WA=x WERF=0
------------------------------------------------------------
                       BEQ_TAKEN | CYCLE 10
reset=1 stall=0 annul=0 z=x pcsel=00
PC=0000003c fetched=xxxxxxxx opcode=xxxxxx
IF_ID_IR=xxxxxxxx
ID_EX_IR=xxxxxxxx
EX_MEM_IR=xxxxxxxx
MEM_WB_IR=xxxxxxxx
RD1=xxxxxxxx RD1_bypass=xxxxxxxx
WB WD=00000030 WA=x WERF=0
------------------------------------------------------------
                       BEQ_TAKEN | CYCLE 11
reset=1 stall=0 annul=0 z=x pcsel=00
PC=00000040 fetched=xxxxxxxx opcode=xxxxxx
IF_ID_IR=xxxxxxxx
ID_EX_IR=xxxxxxxx
EX_MEM_IR=xxxxxxxx
MEM_WB_IR=xxxxxxxx
RD1=xxxxxxxx RD1_bypass=xxxxxxxx
WB WD=00000034 WA=x WERF=0
------------------------------------------------------------
                       BEQ_TAKEN | CYCLE 12
reset=1 stall=0 annul=0 z=x pcsel=00
PC=00000044 fetched=xxxxxxxx opcode=xxxxxx
IF_ID_IR=xxxxxxxx
ID_EX_IR=xxxxxxxx
EX_MEM_IR=xxxxxxxx
MEM_WB_IR=xxxxxxxx
RD1=xxxxxxxx RD1_bypass=xxxxxxxx
WB WD=00000038 WA=x WERF=0
PASS                   BEQ taken link R5=PC+4 R5=00000004 expected=00000004
PASS          BEQ taken fall-through annulled R10=00000000 expected=00000000
PASS                BEQ taken target executed R11=00000016 expected=00000016
PASS                          BEQ taken annul annul_count=1 expected>0

TEST 3: BNE NOT TAKEN
IM[0]  BNE  R2 != 0, target PC=28, R5=PC+4
IM[4]  ADDC R10 = R31 + 33
IM[28] ADDC R11 = R31 + 44
Input R2=00000000
Expected: no annul, R10=33, R5=4
------------------------------------------------------------
                   BNE_NOT_TAKEN | CYCLE 1
reset=1 stall=0 annul=0 z=1 pcsel=00
PC=00000004 fetched=c15f0021 opcode=011101
IF_ID_IR=74a20006
ID_EX_IR=00000000
EX_MEM_IR=00000000
MEM_WB_IR=00000000
RD1=00000000 RD1_bypass=00000000
WB WD=00000000 WA=0 WERF=0
------------------------------------------------------------
                   BNE_NOT_TAKEN | CYCLE 2
reset=1 stall=0 annul=0 z=1 pcsel=00
PC=00000008 fetched=83fff800 opcode=110000
IF_ID_IR=c15f0021
ID_EX_IR=74a20006
EX_MEM_IR=00000000
MEM_WB_IR=00000000
RD1=00000000 RD1_bypass=00000000
WB WD=00000000 WA=0 WERF=0
------------------------------------------------------------
                   BNE_NOT_TAKEN | CYCLE 3
reset=1 stall=0 annul=0 z=1 pcsel=00
PC=0000000c fetched=83fff800 opcode=100000
IF_ID_IR=83fff800
ID_EX_IR=c15f0021
EX_MEM_IR=74a20006
MEM_WB_IR=00000000
RD1=00000000 RD1_bypass=00000000
WB WD=00000000 WA=0 WERF=0
------------------------------------------------------------
                   BNE_NOT_TAKEN | CYCLE 4
reset=1 stall=0 annul=0 z=1 pcsel=00
PC=00000010 fetched=83fff800 opcode=100000
IF_ID_IR=83fff800
ID_EX_IR=83fff800
EX_MEM_IR=c15f0021
MEM_WB_IR=74a20006
RD1=00000000 RD1_bypass=00000000
WB WD=00000004 WA=5 WERF=0
------------------------------------------------------------
                   BNE_NOT_TAKEN | CYCLE 5
reset=1 stall=0 annul=0 z=1 pcsel=00
PC=00000014 fetched=83fff800 opcode=100000
IF_ID_IR=83fff800
ID_EX_IR=83fff800
EX_MEM_IR=83fff800
MEM_WB_IR=c15f0021
RD1=00000000 RD1_bypass=00000000
WB WD=00000021 WA=10 WERF=1
------------------------------------------------------------
                   BNE_NOT_TAKEN | CYCLE 6
reset=1 stall=0 annul=0 z=1 pcsel=00
PC=00000018 fetched=83fff800 opcode=100000
IF_ID_IR=83fff800
ID_EX_IR=83fff800
EX_MEM_IR=83fff800
MEM_WB_IR=83fff800
RD1=00000000 RD1_bypass=00000000
WB WD=00000000 WA=31 WERF=1
------------------------------------------------------------
                   BNE_NOT_TAKEN | CYCLE 7
reset=1 stall=0 annul=0 z=1 pcsel=00
PC=0000001c fetched=c17f002c opcode=100000
IF_ID_IR=83fff800
ID_EX_IR=83fff800
EX_MEM_IR=83fff800
MEM_WB_IR=83fff800
RD1=00000000 RD1_bypass=00000000
WB WD=00000000 WA=31 WERF=1
------------------------------------------------------------
                   BNE_NOT_TAKEN | CYCLE 8
reset=1 stall=0 annul=0 z=1 pcsel=00
PC=00000020 fetched=xxxxxxxx opcode=110000
IF_ID_IR=c17f002c
ID_EX_IR=83fff800
EX_MEM_IR=83fff800
MEM_WB_IR=83fff800
RD1=00000000 RD1_bypass=00000000
WB WD=00000000 WA=31 WERF=1
------------------------------------------------------------
                   BNE_NOT_TAKEN | CYCLE 9
reset=1 stall=0 annul=0 z=x pcsel=00
PC=00000024 fetched=xxxxxxxx opcode=xxxxxx
IF_ID_IR=xxxxxxxx
ID_EX_IR=c17f002c
EX_MEM_IR=83fff800
MEM_WB_IR=83fff800
RD1=xxxxxxxx RD1_bypass=xxxxxxxx
WB WD=00000000 WA=31 WERF=1
FAIL               BNE not taken link R5=PC+4 R5=00000000 expected=00000004
PASS               BNE not taken fall-through R10=00000021 expected=00000021
PASS                   BNE not taken no annul annul_count=0 expected=0

TEST 4: BNE TAKEN
IM[0]  BNE  R2 != 0, target PC=28, R5=PC+4
IM[4]  ADDC R10 = R31 + 33
IM[28] ADDC R11 = R31 + 44
Input R2=00000009
Expected: annul fall-through, R10=0, R11=44, R5=4
------------------------------------------------------------
                       BNE_TAKEN | CYCLE 1
reset=1 stall=0 annul=1 z=0 pcsel=01
PC=00000004 fetched=c15f0021 opcode=011101
IF_ID_IR=74a20006
ID_EX_IR=00000000
EX_MEM_IR=00000000
MEM_WB_IR=00000000
RD1=00000009 RD1_bypass=00000009
WB WD=00000000 WA=0 WERF=0
------------------------------------------------------------
                       BNE_TAKEN | CYCLE 2
reset=1 stall=0 annul=0 z=1 pcsel=00
PC=0000001c fetched=c17f002c opcode=100000
IF_ID_IR=83fff800
ID_EX_IR=74a20006
EX_MEM_IR=00000000
MEM_WB_IR=00000000
RD1=00000000 RD1_bypass=00000000
WB WD=00000000 WA=0 WERF=0
------------------------------------------------------------
                       BNE_TAKEN | CYCLE 3
reset=1 stall=0 annul=0 z=1 pcsel=00
PC=00000020 fetched=xxxxxxxx opcode=110000
IF_ID_IR=c17f002c
ID_EX_IR=83fff800
EX_MEM_IR=74a20006
MEM_WB_IR=00000000
RD1=00000000 RD1_bypass=00000000
WB WD=00000000 WA=0 WERF=0
------------------------------------------------------------
                       BNE_TAKEN | CYCLE 4
reset=1 stall=0 annul=0 z=x pcsel=00
PC=00000024 fetched=xxxxxxxx opcode=xxxxxx
IF_ID_IR=xxxxxxxx
ID_EX_IR=c17f002c
EX_MEM_IR=83fff800
MEM_WB_IR=74a20006
RD1=xxxxxxxx RD1_bypass=xxxxxxxx
WB WD=00000004 WA=5 WERF=1
------------------------------------------------------------
                       BNE_TAKEN | CYCLE 5
reset=1 stall=0 annul=0 z=x pcsel=00
PC=00000028 fetched=xxxxxxxx opcode=xxxxxx
IF_ID_IR=xxxxxxxx
ID_EX_IR=xxxxxxxx
EX_MEM_IR=c17f002c
MEM_WB_IR=83fff800
RD1=xxxxxxxx RD1_bypass=xxxxxxxx
WB WD=00000000 WA=31 WERF=1
------------------------------------------------------------
                       BNE_TAKEN | CYCLE 6
reset=1 stall=0 annul=0 z=x pcsel=00
PC=0000002c fetched=xxxxxxxx opcode=xxxxxx
IF_ID_IR=xxxxxxxx
ID_EX_IR=xxxxxxxx
EX_MEM_IR=xxxxxxxx
MEM_WB_IR=c17f002c
RD1=xxxxxxxx RD1_bypass=xxxxxxxx
WB WD=0000002c WA=11 WERF=1
------------------------------------------------------------
                       BNE_TAKEN | CYCLE 7
reset=1 stall=0 annul=0 z=x pcsel=00
PC=00000030 fetched=xxxxxxxx opcode=xxxxxx
IF_ID_IR=xxxxxxxx
ID_EX_IR=xxxxxxxx
EX_MEM_IR=xxxxxxxx
MEM_WB_IR=xxxxxxxx
RD1=xxxxxxxx RD1_bypass=xxxxxxxx
WB WD=00000024 WA=x WERF=0
------------------------------------------------------------
                       BNE_TAKEN | CYCLE 8
reset=1 stall=0 annul=0 z=x pcsel=00
PC=00000034 fetched=xxxxxxxx opcode=xxxxxx
IF_ID_IR=xxxxxxxx
ID_EX_IR=xxxxxxxx
EX_MEM_IR=xxxxxxxx
MEM_WB_IR=xxxxxxxx
RD1=xxxxxxxx RD1_bypass=xxxxxxxx
WB WD=00000028 WA=x WERF=0
------------------------------------------------------------
                       BNE_TAKEN | CYCLE 9
reset=1 stall=0 annul=0 z=x pcsel=00
PC=00000038 fetched=xxxxxxxx opcode=xxxxxx
IF_ID_IR=xxxxxxxx
ID_EX_IR=xxxxxxxx
EX_MEM_IR=xxxxxxxx
MEM_WB_IR=xxxxxxxx
RD1=xxxxxxxx RD1_bypass=xxxxxxxx
WB WD=0000002c WA=x WERF=0
------------------------------------------------------------
                       BNE_TAKEN | CYCLE 10
reset=1 stall=0 annul=0 z=x pcsel=00
PC=0000003c fetched=xxxxxxxx opcode=xxxxxx
IF_ID_IR=xxxxxxxx
ID_EX_IR=xxxxxxxx
EX_MEM_IR=xxxxxxxx
MEM_WB_IR=xxxxxxxx
RD1=xxxxxxxx RD1_bypass=xxxxxxxx
WB WD=00000030 WA=x WERF=0
------------------------------------------------------------
                       BNE_TAKEN | CYCLE 11
reset=1 stall=0 annul=0 z=x pcsel=00
PC=00000040 fetched=xxxxxxxx opcode=xxxxxx
IF_ID_IR=xxxxxxxx
ID_EX_IR=xxxxxxxx
EX_MEM_IR=xxxxxxxx
MEM_WB_IR=xxxxxxxx
RD1=xxxxxxxx RD1_bypass=xxxxxxxx
WB WD=00000034 WA=x WERF=0
------------------------------------------------------------
                       BNE_TAKEN | CYCLE 12
reset=1 stall=0 annul=0 z=x pcsel=00
PC=00000044 fetched=xxxxxxxx opcode=xxxxxx
IF_ID_IR=xxxxxxxx
ID_EX_IR=xxxxxxxx
EX_MEM_IR=xxxxxxxx
MEM_WB_IR=xxxxxxxx
RD1=xxxxxxxx RD1_bypass=xxxxxxxx
WB WD=00000038 WA=x WERF=0
PASS                   BNE taken link R5=PC+4 R5=00000004 expected=00000004
PASS          BNE taken fall-through annulled R10=00000000 expected=00000000
PASS                BNE taken target executed R11=0000002c expected=0000002c
PASS                          BNE taken annul annul_count=1 expected>0

TEST 5: JMP
IM[0]  JMP  PC=R2, R5=PC+4
IM[4]  ADDC R10 = R31 + 55
IM[28] ADDC R11 = R31 + 66
Input R2=0000001c
Expected: annul fall-through, R10=0, R11=66, R5=4
------------------------------------------------------------
              JMP_CONTROL_HAZARD | CYCLE 1
reset=1 stall=0 annul=1 z=0 pcsel=10
PC=00000004 fetched=c15f0037 opcode=011011
IF_ID_IR=6ca20000
ID_EX_IR=00000000
EX_MEM_IR=00000000
MEM_WB_IR=00000000
RD1=0000001c RD1_bypass=0000001c
WB WD=00000000 WA=0 WERF=0
------------------------------------------------------------
              JMP_CONTROL_HAZARD | CYCLE 2
reset=1 stall=0 annul=0 z=1 pcsel=00
PC=0000001c fetched=c17f0042 opcode=100000
IF_ID_IR=83fff800
ID_EX_IR=6ca20000
EX_MEM_IR=00000000
MEM_WB_IR=00000000
RD1=00000000 RD1_bypass=00000000
WB WD=00000000 WA=0 WERF=0
------------------------------------------------------------
              JMP_CONTROL_HAZARD | CYCLE 3
reset=1 stall=0 annul=0 z=1 pcsel=00
PC=00000020 fetched=xxxxxxxx opcode=110000
IF_ID_IR=c17f0042
ID_EX_IR=83fff800
EX_MEM_IR=6ca20000
MEM_WB_IR=00000000
RD1=00000000 RD1_bypass=00000000
WB WD=00000000 WA=0 WERF=0
------------------------------------------------------------
              JMP_CONTROL_HAZARD | CYCLE 4
reset=1 stall=0 annul=0 z=x pcsel=00
PC=00000024 fetched=xxxxxxxx opcode=xxxxxx
IF_ID_IR=xxxxxxxx
ID_EX_IR=c17f0042
EX_MEM_IR=83fff800
MEM_WB_IR=6ca20000
RD1=xxxxxxxx RD1_bypass=xxxxxxxx
WB WD=00000004 WA=5 WERF=1
------------------------------------------------------------
              JMP_CONTROL_HAZARD | CYCLE 5
reset=1 stall=0 annul=0 z=x pcsel=00
PC=00000028 fetched=xxxxxxxx opcode=xxxxxx
IF_ID_IR=xxxxxxxx
ID_EX_IR=xxxxxxxx
EX_MEM_IR=c17f0042
MEM_WB_IR=83fff800
RD1=xxxxxxxx RD1_bypass=xxxxxxxx
WB WD=00000000 WA=31 WERF=1
------------------------------------------------------------
              JMP_CONTROL_HAZARD | CYCLE 6
reset=1 stall=0 annul=0 z=x pcsel=00
PC=0000002c fetched=xxxxxxxx opcode=xxxxxx
IF_ID_IR=xxxxxxxx
ID_EX_IR=xxxxxxxx
EX_MEM_IR=xxxxxxxx
MEM_WB_IR=c17f0042
RD1=xxxxxxxx RD1_bypass=xxxxxxxx
WB WD=00000042 WA=11 WERF=1
------------------------------------------------------------
              JMP_CONTROL_HAZARD | CYCLE 7
reset=1 stall=0 annul=0 z=x pcsel=00
PC=00000030 fetched=xxxxxxxx opcode=xxxxxx
IF_ID_IR=xxxxxxxx
ID_EX_IR=xxxxxxxx
EX_MEM_IR=xxxxxxxx
MEM_WB_IR=xxxxxxxx
RD1=xxxxxxxx RD1_bypass=xxxxxxxx
WB WD=00000024 WA=x WERF=0
------------------------------------------------------------
              JMP_CONTROL_HAZARD | CYCLE 8
reset=1 stall=0 annul=0 z=x pcsel=00
PC=00000034 fetched=xxxxxxxx opcode=xxxxxx
IF_ID_IR=xxxxxxxx
ID_EX_IR=xxxxxxxx
EX_MEM_IR=xxxxxxxx
MEM_WB_IR=xxxxxxxx
RD1=xxxxxxxx RD1_bypass=xxxxxxxx
WB WD=00000028 WA=x WERF=0
------------------------------------------------------------
              JMP_CONTROL_HAZARD | CYCLE 9
reset=1 stall=0 annul=0 z=x pcsel=00
PC=00000038 fetched=xxxxxxxx opcode=xxxxxx
IF_ID_IR=xxxxxxxx
ID_EX_IR=xxxxxxxx
EX_MEM_IR=xxxxxxxx
MEM_WB_IR=xxxxxxxx
RD1=xxxxxxxx RD1_bypass=xxxxxxxx
WB WD=0000002c WA=x WERF=0
------------------------------------------------------------
              JMP_CONTROL_HAZARD | CYCLE 10
reset=1 stall=0 annul=0 z=x pcsel=00
PC=0000003c fetched=xxxxxxxx opcode=xxxxxx
IF_ID_IR=xxxxxxxx
ID_EX_IR=xxxxxxxx
EX_MEM_IR=xxxxxxxx
MEM_WB_IR=xxxxxxxx
RD1=xxxxxxxx RD1_bypass=xxxxxxxx
WB WD=00000030 WA=x WERF=0
------------------------------------------------------------
              JMP_CONTROL_HAZARD | CYCLE 11
reset=1 stall=0 annul=0 z=x pcsel=00
PC=00000040 fetched=xxxxxxxx opcode=xxxxxx
IF_ID_IR=xxxxxxxx
ID_EX_IR=xxxxxxxx
EX_MEM_IR=xxxxxxxx
MEM_WB_IR=xxxxxxxx
RD1=xxxxxxxx RD1_bypass=xxxxxxxx
WB WD=00000034 WA=x WERF=0
------------------------------------------------------------
              JMP_CONTROL_HAZARD | CYCLE 12
reset=1 stall=0 annul=0 z=x pcsel=00
PC=00000044 fetched=xxxxxxxx opcode=xxxxxx
IF_ID_IR=xxxxxxxx
ID_EX_IR=xxxxxxxx
EX_MEM_IR=xxxxxxxx
MEM_WB_IR=xxxxxxxx
RD1=xxxxxxxx RD1_bypass=xxxxxxxx
WB WD=00000038 WA=x WERF=0
PASS                         JMP link R5=PC+4 R5=00000004 expected=00000004
PASS                JMP fall-through annulled R10=00000000 expected=00000000
PASS                      JMP target executed R11=00000042 expected=00000042
PASS                                JMP annul annul_count=1 expected>0

========================================
CONTROL HAZARD TESTS COMPLETED
PASS COUNT = 16
FAIL COUNT = 2
========================================
$finish called at time : 636 ns : File "D:/Beta/Beta_Processor - Copy/Beta_Processor.srcs/sim_1/new/tb_control_hazard.v" Line 330
