Beta_Processor.sim/sim_1/behav/xsim/top.vcd
$date
   Sat Jun 27 15:11:00 2026
$end

$version
  2024.2.0
  $dumpfile ("top.vcd") 
$end

$timescale
  1ps
$end

$scope module tb_Top $end
$var reg 1 ! clk $end
$var reg 1 " reset $end
$var wire 1 # z $end
$var wire 6 $ opcode [5:0] $end
$var wire 4 % alufn_debug [3:0] $end
$var wire 2 & wdsel_debug [1:0] $end
$var wire 2 ' pcsel_debug [1:0] $end
$var wire 1 ( werf_debug $end
$var wire 1 ) bsel_debug $end
$var wire 1 * asel_debug $end
$var wire 1 + mwr_debug $end
$var wire 1 , moe_debug $end
$var wire 1 - ra2sel_debug $end
$var integer 32 . i [31:0] $end
$var integer 32 / cycle [31:0] $end
$scope module dut $end
$var wire 1 0 clk $end
$var wire 1 1 reset $end
$var wire 1 # z $end
$var wire 6 $ opcode [5:0] $end
$var wire 4 % alufn_debug [3:0] $end
$var wire 2 & wdsel_debug [1:0] $end
$var wire 2 ' pcsel_debug [1:0] $end
$var wire 1 ( werf_debug $end
$var wire 1 ) bsel_debug $end
$var wire 1 * asel_debug $end
$var wire 1 + mwr_debug $end
$var wire 1 , moe_debug $end
$var wire 1 - ra2sel_debug $end
$var wire 6 2 Out [5:0] $end
$var wire 4 3 alufn [3:0] $end
$var wire 2 4 wdsel [1:0] $end
$var wire 2 5 pcsel [1:0] $end
$var wire 1 6 werf $end
$var wire 1 7 bsel $end
$var wire 1 8 asel $end
$var wire 1 9 ra2sel $end
$var wire 1 : mwr $end
$var wire 1 ; moe $end
$scope module DU $end
$var wire 1 0 clk $end
$var wire 1 1 reset $end
$var wire 4 3 alufn [3:0] $end
$var wire 2 4 wdsel [1:0] $end
$var wire 2 5 pcsel [1:0] $end
$var wire 1 6 werf $end
$var wire 1 7 bsel $end
$var wire 1 8 asel $end
$var wire 1 : mwr $end
$var wire 1 ; moe $end
$var wire 1 9 ra2sel $end
$var wire 1 # z $end
$var wire 6 2 Out [5:0] $end
$var wire 32 < PC_plus4 [31:0] $end
$var wire 32 = PC_Adder [31:0] $end
$var wire 32 > JT [31:0] $end
$var wire 32 ? PC_in [31:0] $end
$var wire 32 @ PC_out [31:0] $end
$var wire 32 A IF_ID_PC_out [31:0] $end
$var wire 32 B IM_out [31:0] $end
$var wire 32 C WD [31:0] $end
$var wire 32 D RD1 [31:0] $end
$var wire 32 E RD2 [31:0] $end
$var wire 32 F IF_ID_IR_out [31:0] $end
$var wire 32 G SXT_out [31:0] $end
$var wire 32 H LS_out [31:0] $end
$var wire 32 I IF_EX_PC_out [31:0] $end
$var wire 32 J A_in [31:0] $end
$var wire 32 K A_out [31:0] $end
$var wire 32 L B_in [31:0] $end
$var wire 32 M B_out [31:0] $end
$var wire 32 N D_out [31:0] $end
$var wire 32 O Y1_in [31:0] $end
$var wire 32 P Y1_out [31:0] $end
$var wire 32 Q EX_MEM_PC_out [31:0] $end
$var wire 32 R ID_EX_IR_out [31:0] $end
$var wire 32 S EX_MEM_IR_out [31:0] $end
$var wire 32 T D1_out [31:0] $end
$var wire 32 U RD [31:0] $end
$var wire 32 V WDSEL_out [31:0] $end
$var wire 32 W MEM_WB_IR_out [31:0] $end
$var wire 32 X MEM_WB_PC_out [31:0] $end
$var wire 5 Y RA2SEL_out [4:0] $end
$var wire 1 Z werf_ex $end
$var wire 1 [ werf_mem $end
$var wire 1 \ werf_wb $end
$var wire 1 ] moe_ex $end
$var wire 1 ^ moe_mem $end
$var wire 1 _ mwr_ex $end
$var wire 1 ` mwr_mem $end
$var wire 2 a wdsel_ex [1:0] $end
$var wire 2 b wdsel_mem [1:0] $end
$var wire 4 c alufn_ex [3:0] $end
$scope module PCSEL_multiplexer $end
$var wire 32 < In0 [31:0] $end
$var wire 32 = In1 [31:0] $end
$var wire 32 > In2 [31:0] $end
$var wire 32 d In3 [31:0] $end
$var wire 2 5 sel [1:0] $end
$var reg 32 e Out [31:0] $end
$upscope $end
$scope module PC $end
$var wire 1 0 clk $end
$var wire 1 1 reset $end
$var wire 32 ? D [31:0] $end
$var reg 32 f Q [31:0] $end
$upscope $end
$scope module PC_nxt $end
$var wire 32 @ PC [31:0] $end
$var wire 32 < PC_next [31:0] $end
$upscope $end
$scope module IF_ID_PC $end
$var wire 1 0 clk $end
$var wire 1 1 reset $end
$var wire 32 < D [31:0] $end
$var reg 32 g Q [31:0] $end
$upscope $end
$scope module IM $end
$var wire 32 @ Addr [31:0] $end
$var wire 32 B Out [31:0] $end
$upscope $end
$scope module IF_ID_IR $end
$var wire 1 0 clk $end
$var wire 1 1 reset $end
$var wire 32 B D [31:0] $end
$var reg 32 h Q [31:0] $end
$upscope $end
$scope module RF $end
$var wire 1 0 clk $end
$var wire 5 i RA1 [20:16] $end
$var wire 5 Y RA2 [4:0] $end
$var wire 5 j WA [25:21] $end
$var wire 1 \ WE $end
$var wire 32 C WD [31:0] $end
$var wire 32 D RD1 [31:0] $end
$var wire 32 E RD2 [31:0] $end
$upscope $end
$scope module RA2SEL_mux $end
$var wire 5 k In0 [15:11] $end
$var wire 5 l In1 [25:21] $end
$var wire 1 9 sel $end
$var wire 5 Y Out [4:0] $end
$upscope $end
$scope module SXT $end
$var wire 16 m In [15:0] $end
$var wire 32 G Out [31:0] $end
$upscope $end
$scope module Left_2 $end
$var wire 32 G In [31:0] $end
$var wire 32 H Out [31:0] $end
$upscope $end
$scope module Add $end
$var wire 32 H In0 [31:0] $end
$var wire 32 A In1 [31:0] $end
$var wire 32 = Out [31:0] $end
$upscope $end
$scope module N $end
$var wire 32 D In [31:0] $end
$var wire 1 # Out $end
$upscope $end
$scope module ASEL_mux $end
$var wire 32 D In0 [31:0] $end
$var wire 32 = In1 [31:0] $end
$var wire 1 8 sel $end
$var wire 32 J Out [31:0] $end
$upscope $end
$scope module BSEL_mux $end
$var wire 32 E In0 [31:0] $end
$var wire 32 G In1 [31:0] $end
$var wire 1 7 sel $end
$var wire 32 L Out [31:0] $end
$upscope $end
$scope module ID_EX_PC $end
$var wire 1 0 clk $end
$var wire 1 1 reset $end
$var wire 32 A D [31:0] $end
$var reg 32 n Q [31:0] $end
$upscope $end
$scope module ID_EX_IR $end
$var wire 1 0 clk $end
$var wire 1 1 reset $end
$var wire 32 F D [31:0] $end
$var reg 32 o Q [31:0] $end
$upscope $end
$scope module A $end
$var wire 1 0 clk $end
$var wire 1 1 reset $end
$var wire 32 J D [31:0] $end
$var reg 32 p Q [31:0] $end
$upscope $end
$scope module B $end
$var wire 1 0 clk $end
$var wire 1 1 reset $end
$var wire 32 L D [31:0] $end
$var reg 32 q Q [31:0] $end
$upscope $end
$scope module D $end
$var wire 1 0 clk $end
$var wire 1 1 reset $end
$var wire 32 E D [31:0] $end
$var reg 32 r Q [31:0] $end
$upscope $end
$scope module alu $end
$var wire 4 c alufn [3:0] $end
$var wire 32 K A [31:0] $end
$var wire 32 M B [31:0] $end
$var reg 32 s Y [31:0] $end
$upscope $end
$scope module EX_MEM_PC $end
$var wire 1 0 clk $end
$var wire 1 1 reset $end
$var wire 32 I D [31:0] $end
$var reg 32 t Q [31:0] $end
$upscope $end
$scope module EX_MEM_IR $end
$var wire 1 0 clk $end
$var wire 1 1 reset $end
$var wire 32 R D [31:0] $end
$var reg 32 u Q [31:0] $end
$upscope $end
$scope module Y1 $end
$var wire 1 0 clk $end
$var wire 1 1 reset $end
$var wire 32 O D [31:0] $end
$var reg 32 v Q [31:0] $end
$upscope $end
$scope module D1 $end
$var wire 1 0 clk $end
$var wire 1 1 reset $end
$var wire 32 N D [31:0] $end
$var reg 32 w Q [31:0] $end
$upscope $end
$scope module DM $end
$var wire 1 0 clk $end
$var wire 32 T WD [31:0] $end
$var wire 32 P Addr [31:0] $end
$var wire 1 ` RW $end
$var wire 1 ^ OE $end
$var wire 32 U RD [31:0] $end
$upscope $end
$scope module WDSEL_mux $end
$var wire 32 Q In0 [31:0] $end
$var wire 32 P In1 [31:0] $end
$var wire 32 U In2 [31:0] $end
$var wire 32 x In3 [31:0] $end
$var wire 2 b sel [1:0] $end
$var reg 32 y Out [31:0] $end
$upscope $end
$scope module MEM_WB_IR $end
$var wire 1 0 clk $end
$var wire 1 1 reset $end
$var wire 32 S D [31:0] $end
$var reg 32 z Q [31:0] $end
$upscope $end
$scope module MEM_WB_PC $end
$var wire 1 0 clk $end
$var wire 1 1 reset $end
$var wire 32 Q D [31:0] $end
$var reg 32 { Q [31:0] $end
$upscope $end
$scope module Y2 $end
$var wire 1 0 clk $end
$var wire 1 1 reset $end
$var wire 32 V D [31:0] $end
$var reg 32 | Q [31:0] $end
$upscope $end
$scope module WERF1 $end
$var wire 1 0 clk $end
$var wire 1 1 reset $end
$var wire 1 6 D $end
$var reg 1 } Q $end
$upscope $end
$scope module WERF2 $end
$var wire 1 0 clk $end
$var wire 1 1 reset $end
$var wire 1 Z D $end
$var reg 1 ~ Q $end
$upscope $end
$scope module WERF3 $end
$var wire 1 0 clk $end
$var wire 1 1 reset $end
$var wire 1 [ D $end
$var reg 1 !! Q $end
$upscope $end
$scope module MOE1 $end
$var wire 1 0 clk $end
$var wire 1 1 reset $end
$var wire 1 ; D $end
$var reg 1 "! Q $end
$upscope $end
$scope module MOE2 $end
$var wire 1 0 clk $end
$var wire 1 1 reset $end
$var wire 1 ] D $end
$var reg 1 #! Q $end
$upscope $end
$scope module MWR1 $end
$var wire 1 0 clk $end
$var wire 1 1 reset $end
$var wire 1 : D $end
$var reg 1 $! Q $end
$upscope $end
$scope module MWR2 $end
$var wire 1 0 clk $end
$var wire 1 1 reset $end
$var wire 1 _ D $end
$var reg 1 %! Q $end
$upscope $end
$scope module WDSEL1 $end
$var wire 1 0 clk $end
$var wire 1 1 reset $end
$var wire 2 4 D [1:0] $end
$var reg 2 &! Q [1:0] $end
$upscope $end
$scope module WDSEL2 $end
$var wire 1 0 clk $end
$var wire 1 1 reset $end
$var wire 2 a D [1:0] $end
$var reg 2 '! Q [1:0] $end
$upscope $end
$scope module ALUFN1 $end
$var wire 1 0 clk $end
$var wire 1 1 reset $end
$var wire 4 3 D [3:0] $end
$var reg 4 (! Q [3:0] $end
$upscope $end
$upscope $end
$scope module CU $end
$var wire 1 # z $end
$var wire 6 2 op [5:0] $end
$var reg 4 )! alufn [3:0] $end
$var reg 2 *! wdsel [1:0] $end
$var reg 2 +! pcsel [1:0] $end
$var reg 1 ,! ra2sel $end
$var reg 1 -! asel $end
$var reg 1 .! bsel $end
$var reg 1 /! moe $end
$var reg 1 0! mwr $end
$var reg 1 1! werf $end
$upscope $end
$upscope $end
$scope function R $end
$var reg 32 2! R [31:0] $end
$var reg 6 3! op [5:0] $end
$var reg 5 4! rc [4:0] $end
$var reg 5 5! ra [4:0] $end
$var reg 5 6! rb [4:0] $end
$upscope $end
$scope function C $end
$var reg 32 7! C [31:0] $end
$var reg 6 8! op [5:0] $end
$var reg 5 9! rc [4:0] $end
$var reg 5 :! ra [4:0] $end
$var reg 16 ;! lit [15:0] $end
$upscope $end
$upscope $end
$enddefinitions $end

#0
$dumpvars
0!
0!!
0"
0"!
1#
0#!
b0 $
0$!
b0 %
0%!
b0 &
b0 &!
b0 '
b0 '!
0(
b0 (!
0)
b0 )!
0*
b0 *!
0+
b0 +!
0,
0,!
0-
0-!
b10000000000 .
0.!
b0 /
0/!
00
00!
01
01!
b0 2
b10100101100010100101100000000000 2!
b0 3
b101001 3!
b0 4
b1100 4!
b0 5
b1010 5!
06
b1011 6!
07
b1100110001100100000000000000000 7!
08
b11001 8!
09
b10001 9!
0:
b10010 :!
0;
b0 ;!
b100 <
b0 =
b0 >
b100 ?
b0 @
b0 A
b10000000001000100001100000000000 B
b0 C
b0 D
b0 E
b0 F
b0 G
b0 H
b0 I
b0 J
b0 K
b0 L
b0 M
b0 N
b0 O
b0 P
b0 Q
b0 R
b0 S
b0 T
b0 U
b0 V
b0 W
b0 X
b0 Y
0Z
0[
0\
0]
0^
0_
0`
b0 a
b0 b
b0 c
b0 d
b100 e
b0 f
b0 g
b0 h
b0 i
b0 j
b0 k
b0 l
b0 m
b0 n
b0 o
b0 p
b0 q
b0 r
b0 s
b0 t
b0 u
b0 v
b0 w
b0 x
b0 y
b0 z
b0 {
b0 |
0}
0~
$end

#5000
1!
10

#6000
b1 /

#10000
0!
00

#15000
1!
10

#16000
b10 /

#20000
0!
1"
00
11

#25000
1!
0#
b100000 $
b1 &
1(
b1 *!
10
11!
b100000 2
b1 4
16
b1000 <
b110000000000100 =
b111 >
b1000 ?
b100 @
b100 A
b10000100110001000010100000000000 B
b111 D
b100 E
b10000000001000100001100000000000 F
b1100000000000 G
b110000000000000 H
b111 J
b100 L
b11 Y
b1000 e
b100 f
b100 g
b10000000001000100001100000000000 h
b10 i
b11 k
b1 l
b1100000000000 m

#26000
b11 /

#30000
0!
00

#35000
1!
b100001 $
b1 %
b1 &!
b1 )!
b1 *!
10
11!
b100001 2
b1 3
b1100 <
b1010000000001000 =
b10100 >
b1100 ?
b1000 @
b1000 A
b10100001001001110100000000000000 B
b10100 D
b1000 E
b10000100110001000010100000000000 F
b10100000000000 G
b1010000000000000 H
b100 I
b10100 J
b111 K
b1000 L
b100 M
b100 N
b1011 O
b10000000001000100001100000000000 R
b101 Y
1Z
b1 a
b1100 e
b1000 f
b1000 g
b10000100110001000010100000000000 h
b100 i
b101 k
b110 l
b10100000000000 m
b100 n
b10000000001000100001100000000000 o
b111 p
b100 q
b100 r
b1011 s
1}

#36000
b100 /

#40000
0!
00

#45000
1!
b101000 $
b1000 %
b1 '!
b1 (!
b1000 )!
b1 *!
10
11!
b101000 2
b1000 3
b10000 <
b10000000000001100 =
b11110000111100001111000011110000 >
b10000 ?
b1100 @
b1100 A
b10100101100010100101100000000000 B
b11110000111100001111000011110000 D
b1111000011110000111100001111 E
b10100001001001110100000000000000 F
b100000000000000 G
b10000000000000000 H
b1000 I
b11110000111100001111000011110000 J
b10100 K
b1111000011110000111100001111 L
b1000 M
b1000 N
b1100 O
b1011 P
b100 Q
b10000100110001000010100000000000 R
b10000000001000100001100000000000 S
b100 T
b1011 V
b1000 Y
1[
b1 b
b1 c
b10000 e
b1100 f
b1100 g
b10100001001001110100000000000000 h
b111 i
b1000 k
b1001 l
b100000000000000 m
b1000 n
b10000100110001000010100000000000 o
b10100 p
b1000 q
b1000 r
b1100 s
b100 t
b10000000001000100001100000000000 u
b1011 v
b100 w
b1011 y
1~

#46000
b101 /

#50000
0!
00

#55000
1!
1!!
b101001 $
b1001 %
b1000 (!
b1001 )!
b1 *!
10
11!
b101001 2
b1001 3
b10100 <
b10110000000010000 =
b10100 ?
b10000 @
b10000 A
b11000001110011010000000000000101 B
b1011 C
b10100101100010100101100000000000 F
b101100000000000 G
b10110000000000000 H
b1100 I
b11110000111100001111000011110000 K
b1111000011110000111100001111 M
b1111000011110000111100001111 N
b0 O
b1100 P
b1000 Q
b10100001001001110100000000000000 R
b10000100110001000010100000000000 S
b1000 T
b1100 V
b10000000001000100001100000000000 W
b100 X
b1011 Y
1\
b1000 c
b10100 e
b10000 f
b10000 g
b10100101100010100101100000000000 h
b1010 i
b1 j
b1011 k
b1100 l
b101100000000000 m
b1100 n
b10100001001001110100000000000000 o
b11110000111100001111000011110000 p
b1111000011110000111100001111 q
b1111000011110000111100001111 r
b0 s
b1000 t
b10000100110001000010100000000000 u
b1100 v
b1000 w
b1100 y
b10000000001000100001100000000000 z
b100 {
b1011 |

#56000
b110 /

#60000
0!
00

#65000
1!
b110000 $
b0 %
b1001 (!
1)
b0 )!
b1 *!
1.!
10
11!
b110000 2
b0 3
17
b11000 <
b101000 =
b1100100 >
b11000 ?
b10100 @
b10100 A
b1100010000011110000000000000000 B
b1100 C
b1100100 D
b0 E
b11000001110011010000000000000101 F
b101 G
b10100 H
b10000 I
b1100100 J
b101 L
b11111111111111111111111111111111 O
b0 P
b1100 Q
b10100101100010100101100000000000 R
b10100001001001110100000000000000 S
b1111000011110000111100001111 T
b0 V
b10000100110001000010100000000000 W
b1000 X
b0 Y
b1001 c
b11000 e
b10100 f
b10100 g
b11000001110011010000000000000101 h
b1101 i
b110 j
b0 k
b1110 l
b101 m
b10000 n
b10100101100010100101100000000000 o
b11111111111111111111111111111111 s
b1100 t
b10100001001001110100000000000000 u
b0 v
b1111000011110000111100001111 w
b0 y
b10000100110001000010100000000000 z
b1000 {
b1100 |

#66000
b111 /

#70000
0!
00

#75000
1!
b11000 $
b10 &
b0 (!
b10 *!
1,
1.!
1/!
10
11!
b11000 2
b10 4
1;
b11100 <
b11000 =
b11 >
b11100 ?
b11000 @
b11000 A
b1100110001100100000000000000000 B
b0 C
b11 D
b1100010000011110000000000000000 F
b0 G
b0 H
b10100 I
b11 J
b1100100 K
b0 L
b101 M
b0 N
b1101001 O
b11111111111111111111111111111111 P
b10000 Q
b11000001110011010000000000000101 R
b10100101100010100101100000000000 S
b11111111111111111111111111111111 V
b10100001001001110100000000000000 W
b1100 X
b0 c
b11100 e
b11000 f
b11000 g
b1100010000011110000000000000000 h
b1111 i
b1001 j
b0 k
b10000 l
b0 m
b10100 n
b11000001110011010000000000000101 o
b1100100 p
b101 q
b0 r
b1101001 s
b10000 t
b10100101100010100101100000000000 u
b11111111111111111111111111111111 v
b11111111111111111111111111111111 y
b10100001001001110100000000000000 z
b1100 {
b0 |

#76000
b1000 /

#80000
0!
00

#85000
1!
1"!
b11001 $
b0 &
b10 &!
0(
b0 *!
1+
0,
1,!
1-
1.!
0/!
10
10!
01!
b11001 2
b0 4
06
19
1:
0;
b100000 <
b11100 =
b101 >
b100000 ?
b11100 @
b11100 A
b0 B
b11111111111111111111111111111111 C
b101 D
b10010001101000101011001111000 E
b1100110001100100000000000000000 F
b11000 I
b101 J
b11 K
b0 M
b11 O
b1101001 P
b10100 Q
b1100010000011110000000000000000 R
b11000001110011010000000000000101 S
b0 T
b1101001 V
b10100101100010100101100000000000 W
b10000 X
b10001 Y
1]
b10 a
b100000 e
b11100 f
b11100 g
b1100110001100100000000000000000 h
b10010 i
b1100 j
b0 k
b10001 l
b0 m
b11000 n
b1100010000011110000000000000000 o
b11 p
b0 q
b11 s
b10100 t
b11000001110011010000000000000101 u
b1101001 v
b0 w
b1101001 y
b10100101100010100101100000000000 z
b10000 {
b11111111111111111111111111111111 |

#86000
b1001 /

#90000
0!
00

#95000
1!
0"!
1#
1#!
b0 $
1$!
b0 &!
b10 '!
0)
0+
0,!
0-
0.!
10
00!
b0 2
07
09
0:
b100100 <
b100000 =
b0 >
b100100 ?
b100000 @
b100000 A
bx B
b1101001 C
b0 D
b0 E
b0 F
b11100 I
b0 J
b101 K
b10010001101000101011001111000 N
b101 O
b11 P
b11000 Q
b1100110001100100000000000000000 R
b1100010000011110000000000000000 S
b10100101101001010101101001011010 U
b10100101101001010101101001011010 V
b11000001110011010000000000000101 W
b10100 X
b0 Y
0Z
0]
1^
1_
b0 a
b10 b
b100100 e
b100000 f
b100000 g
b0 h
b0 i
b1110 j
b0 k
b0 l
b0 m
b11100 n
b1100110001100100000000000000000 o
b101 p
b10010001101000101011001111000 r
b101 s
b11000 t
b1100010000011110000000000000000 u
b11 v
b10100101101001010101101001011010 y
b11000001110011010000000000000101 z
b10100 {
b1101001 |
0}

#96000
b1010 /

#100000
0!
00

#105000
1!
x#
0#!
bx $
0$!
1%!
b0 '!
10
bx 2
b101000 <
bx =
bx >
b101000 ?
b100100 @
b100100 A
b10100101101001010101101001011010 C
bx D
bx E
bx F
bx G
bx00 H
b100000 I
bx J
b0 K
bx L
b0 N
b0 O
b101 P
b11100 Q
b0 R
b1100110001100100000000000000000 S
b10010001101000101011001111000 T
b0 U
b11100 V
b1100010000011110000000000000000 W
b11000 X
bx Y
0[
0^
0_
1`
b0 b
b101000 e
b100100 f
b100100 g
bx h
bx i
b10000 j
bx k
bx l
bx m
b100000 n
b0 o
b0 p
b0 r
b0 s
b11100 t
b1100110001100100000000000000000 u
b101 v
b10010001101000101011001111000 w
b11100 y
b1100010000011110000000000000000 z
b11000 {
b10100101101001010101101001011010 |
0~

#106000
b1011 /

#110000
0!
00

#115000
1!
0!!
0%!
10
b101100 <
b101100 ?
b101000 @
b101000 A
b11100 C
b100100 I
bx K
bx M
bx N
bx O
b0 P
b100000 Q
bx R
b0 S
b0 T
b100000 V
b1100110001100100000000000000000 W
b11100 X
0\
0`
b101100 e
b101000 f
b101000 g
b10001 j
b100100 n
bx o
bx p
bx q
bx r
bx s
b100000 t
b0 u
b0 v
b0 w
b100000 y
b1100110001100100000000000000000 z
b11100 {
b11100 |

#116000
b1100 /

#120000
0!
00

#125000
1!
10
b110000 <
b110000 ?
b101100 @
b101100 A
b100000 C
b101000 I
bx P
b100100 Q
bx S
bx T
b100100 V
b0 W
b100000 X
b110000 e
b101100 f
b101100 g
b0 j
b101000 n
b100100 t
bx u
bx v
bx w
b100100 y
b0 z
b100000 {
b100000 |

#126000
b1101 /

#130000
0!
00

#135000
1!
10
b110100 <
b110100 ?
b110000 @
b110000 A
b100100 C
b101100 I
b101000 Q
b101000 V
bx W
b100100 X
b110100 e
b110000 f
b110000 g
bx j
b101100 n
b101000 t
b101000 y
bx z
b100100 {
b100100 |

#136000
b1110 /

#140000
0!
00

#145000
1!
10
b111000 <
b111000 ?
b110100 @
b110100 A
b101000 C
b110000 I
b101100 Q
b101100 V
b101000 X
b111000 e
b110100 f
b110100 g
b110000 n
b101100 t
b101100 y
b101000 {
b101000 |

#146000
b1111 /

#150000
0!
00

#155000
1!
10
b111100 <
b111100 ?
b111000 @
b111000 A
b101100 C
b110100 I
b110000 Q
b110000 V
b101100 X
b111100 e
b111000 f
b111000 g
b110100 n
b110000 t
b110000 y
b101100 {
b101100 |

#156000
b10000 /

#160000
0!
00

#165000
1!
10
b1000000 <
b1000000 ?
b111100 @
b111100 A
b110000 C
b111000 I
b110100 Q
b110100 V
b110000 X
b1000000 e
b111100 f
b111100 g
b111000 n
b110100 t
b110100 y
b110000 {
b110000 |

#166000
b10001 /

#170000
0!
00

#175000
1!
10
b1000100 <
b1000100 ?
b1000000 @
b1000000 A
b110100 C
b111100 I
b111000 Q
b111000 V
b110100 X
b1000100 e
b1000000 f
b1000000 g
b111100 n
b111000 t
b111000 y
b110100 {
b110100 |

#176000
b10010 /

#180000
0!
00

#185000
1!
10
b1001000 <
b1001000 ?
b1000100 @
b1000100 A
b111000 C
b1000000 I
b111100 Q
b111100 V
b111000 X
b1001000 e
b1000100 f
b1000100 g
b1000000 n
b111100 t
b111100 y
b111000 {
b111000 |

#186000
b10011 /

#190000
0!
00

#195000
1!
10
b1001100 <
b1001100 ?
b1001000 @
b1001000 A
b111100 C
b1000100 I
b1000000 Q
b1000000 V
b111100 X
b1001100 e
b1001000 f
b1001000 g
b1000100 n
b1000000 t
b1000000 y
b111100 {
b111100 |

#196000
b10100 /

#200000
0!
00

#205000
1!
10
b1010000 <
b1010000 ?
b1001100 @
b1001100 A
b1000000 C
b1001000 I
b1000100 Q
b1000100 V
b1000000 X
b1010000 e
b1001100 f
b1001100 g
b1001000 n
b1000100 t
b1000100 y
b1000000 {
b1000000 |

#206000
b10101 /

#210000
0!
00

#215000
1!
10
b1010100 <
b1010100 ?
b1010000 @
b1010000 A
b1000100 C
b1001100 I
b1001000 Q
b1001000 V
b1000100 X
b1010100 e
b1010000 f
b1010000 g
b1001100 n
b1001000 t
b1001000 y
b1000100 {
b1000100 |

#216000
b10110 /

#220000
0!
00

#225000
1!
10
b1011000 <
b1011000 ?
b1010100 @
b1010100 A
b1001000 C
b1010000 I
b1001100 Q
b1001100 V
b1001000 X
b1011000 e
b1010100 f
b1010100 g
b1010000 n
b1001100 t
b1001100 y
b1001000 {
b1001000 |

#226000
b10111 /

#230000
0!
00

#235000
1!
10
b1011100 <
b1011100 ?
b1011000 @
b1011000 A
b1001100 C
b1010100 I
b1010000 Q
b1010000 V
b1001100 X
b1011100 e
b1011000 f
b1011000 g
b1010100 n
b1010000 t
b1010000 y
b1001100 {
b1001100 |

#236000
b11000 /

#240000
0!
00

#245000
1!
10
b1100000 <
b1100000 ?
b1011100 @
b1011100 A
b1010000 C
b1011000 I
b1010100 Q
b1010100 V
b1010000 X
b1100000 e
b1011100 f
b1011100 g
b1011000 n
b1010100 t
b1010100 y
b1010000 {
b1010000 |

#246000
b11001 /

#250000
0!
00

#255000
1!
10
b1100100 <
b1100100 ?
b1100000 @
b1100000 A
b1010100 C
b1011100 I
b1011000 Q
b1011000 V
b1010100 X
b1100100 e
b1100000 f
b1100000 g
b1011100 n
b1011000 t
b1011000 y
b1010100 {
b1010100 |

#256000
b11010 /

#260000
0!
00

#265000
1!
10
b1101000 <
b1101000 ?
b1100100 @
b1100100 A
b1011000 C
b1100000 I
b1011100 Q
b1011100 V
b1011000 X
b1101000 e
b1100100 f
b1100100 g
b1100000 n
b1011100 t
b1011100 y
b1011000 {
b1011000 |

#266000
b11011 /
