Beta_Processor.sim/sim_1/behav/xsim/top_data_hazards.vcd
$date
   Sun Jun 28 15:15:17 2026
$end

$version
  2024.2.0
  $dumpfile ("top_data_hazards.vcd") 
$end

$timescale
  1ps
$end

$scope module tb_Top_Data_Hazards $end
$var reg 1 ! clk $end
$var reg 1 " reset $end
$var wire 1 # z $end
$var wire 6 $ opcode [5:0] $end
$var wire 4 % alufn_debug [3:0] $end
$var wire 2 & wdsel_debug [1:0] $end
$var wire 2 ' pcsel_debug [1:0] $end
$var wire 1 ( werf_debug $end
$var wire 1 ) bsel_debug $end
$var wire 1 * asel_debug $end
$var wire 1 + mwr_debug $end
$var wire 1 , moe_debug $end
$var wire 1 - ra2sel_debug $end
$var integer 32 . i [31:0] $end
$var integer 32 / cycle [31:0] $end
$var integer 32 0 pass_count [31:0] $end
$var integer 32 1 fail_count [31:0] $end
$scope module dut $end
$var wire 1 2 clk $end
$var wire 1 3 reset $end
$var wire 1 # z $end
$var wire 6 $ opcode [5:0] $end
$var wire 4 % alufn_debug [3:0] $end
$var wire 2 & wdsel_debug [1:0] $end
$var wire 2 ' pcsel_debug [1:0] $end
$var wire 1 ( werf_debug $end
$var wire 1 ) bsel_debug $end
$var wire 1 * asel_debug $end
$var wire 1 + mwr_debug $end
$var wire 1 , moe_debug $end
$var wire 1 - ra2sel_debug $end
$var wire 6 4 Out [5:0] $end
$var wire 4 5 alufn [3:0] $end
$var wire 2 6 wdsel [1:0] $end
$var wire 2 7 pcsel [1:0] $end
$var wire 1 8 werf $end
$var wire 1 9 bsel $end
$var wire 1 : asel $end
$var wire 1 ; ra2sel $end
$var wire 1 < mwr $end
$var wire 1 = moe $end
$scope module DU $end
$var wire 1 2 clk $end
$var wire 1 3 reset $end
$var wire 4 5 alufn [3:0] $end
$var wire 2 6 wdsel [1:0] $end
$var wire 2 7 pcsel [1:0] $end
$var wire 1 8 werf $end
$var wire 1 9 bsel $end
$var wire 1 : asel $end
$var wire 1 < mwr $end
$var wire 1 = moe $end
$var wire 1 ; ra2sel $end
$var wire 1 # z $end
$var wire 6 4 Out [5:0] $end
$var wire 32 > PC_plus4 [31:0] $end
$var wire 32 ? PC_Adder [31:0] $end
$var wire 32 @ JT [31:0] $end
$var wire 32 A PC_in [31:0] $end
$var wire 32 B PC_out [31:0] $end
$var wire 32 C IF_ID_PC_out [31:0] $end
$var wire 32 D IM_out [31:0] $end
$var wire 32 E WD [31:0] $end
$var wire 32 F RD1 [31:0] $end
$var wire 32 G RD2 [31:0] $end
$var wire 32 H IF_ID_IR_out [31:0] $end
$var wire 32 I SXT_out [31:0] $end
$var wire 32 J LS_out [31:0] $end
$var wire 32 K IF_EX_PC_out [31:0] $end
$var wire 32 L A_in [31:0] $end
$var wire 32 M A_out [31:0] $end
$var wire 32 N B_in [31:0] $end
$var wire 32 O B_out [31:0] $end
$var wire 32 P D_out [31:0] $end
$var wire 32 Q Y1_in [31:0] $end
$var wire 32 R Y1_out [31:0] $end
$var wire 32 S EX_MEM_PC_out [31:0] $end
$var wire 32 T ID_EX_IR_out [31:0] $end
$var wire 32 U EX_MEM_IR_out [31:0] $end
$var wire 32 V D1_out [31:0] $end
$var wire 32 W RD [31:0] $end
$var wire 32 X WDSEL_out [31:0] $end
$var wire 32 Y MEM_WB_IR_out [31:0] $end
$var wire 32 Z MEM_WB_PC_out [31:0] $end
$var wire 5 [ RA2SEL_out [4:0] $end
$var wire 1 \ werf_ex $end
$var wire 1 ] werf_mem $end
$var wire 1 ^ werf_wb $end
$var wire 1 _ moe_ex $end
$var wire 1 ` moe_mem $end
$var wire 1 a mwr_ex $end
$var wire 1 b mwr_mem $end
$var wire 2 c wdsel_ex [1:0] $end
$var wire 2 d wdsel_mem [1:0] $end
$var wire 4 e alufn_ex [3:0] $end
$var wire 1 f stall $end
$var wire 32 g ID_EX_IR_in [31:0] $end
$scope module HU $end
$var wire 32 H IF_ID_IR [31:0] $end
$var wire 32 T ID_EX_IR [31:0] $end
$var wire 32 U EX_MEM_IR [31:0] $end
$var wire 32 Y MEM_WB_IR [31:0] $end
$var wire 1 \ werf_ex $end
$var wire 1 ] werf_mem $end
$var wire 1 ^ werf_wb $end
$var wire 1 f stall $end
$var wire 6 h opcode [5:0] $end
$var wire 5 i src1 [4:0] $end
$var wire 5 j src2 [4:0] $end
$var wire 5 k dest_ex [4:0] $end
$var wire 5 l dest_mem [4:0] $end
$var wire 5 m dest_wb [4:0] $end
$var wire 1 n src1_used $end
$var wire 1 o src2_used $end
$var wire 1 p is_rtype $end
$var wire 1 q is_st $end
$var wire 1 r is_ldr $end
$var wire 1 s h_ex_src1 $end
$var wire 1 t h_ex_src2 $end
$var wire 1 u h_mem_src1 $end
$var wire 1 v h_mem_src2 $end
$var wire 1 w h_wb_src1 $end
$var wire 1 x h_wb_src2 $end
$upscope $end
$scope module PCSEL_multiplexer $end
$var wire 32 > In0 [31:0] $end
$var wire 32 ? In1 [31:0] $end
$var wire 32 @ In2 [31:0] $end
$var wire 32 y In3 [31:0] $end
$var wire 2 7 sel [1:0] $end
$var reg 32 z Out [31:0] $end
$upscope $end
$scope module PC $end
$var wire 1 2 clk $end
$var wire 1 3 reset $end
$var wire 1 { en $end
$var wire 32 A D [31:0] $end
$var reg 32 | Q [31:0] $end
$upscope $end
$scope module PC_nxt $end
$var wire 32 B PC [31:0] $end
$var wire 32 > PC_next [31:0] $end
$upscope $end
$scope module IF_ID_PC $end
$var wire 1 2 clk $end
$var wire 1 3 reset $end
$var wire 1 { en $end
$var wire 32 > D [31:0] $end
$var reg 32 } Q [31:0] $end
$upscope $end
$scope module IM $end
$var wire 32 B Addr [31:0] $end
$var wire 32 D Out [31:0] $end
$upscope $end
$scope module IF_ID_IR $end
$var wire 1 2 clk $end
$var wire 1 3 reset $end
$var wire 1 { en $end
$var wire 32 D D [31:0] $end
$var reg 32 ~ Q [31:0] $end
$upscope $end
$scope module RF $end
$var wire 1 2 clk $end
$var wire 5 !! RA1 [20:16] $end
$var wire 5 [ RA2 [4:0] $end
$var wire 5 "! WA [25:21] $end
$var wire 1 ^ WE $end
$var wire 32 E WD [31:0] $end
$var wire 32 F RD1 [31:0] $end
$var wire 32 G RD2 [31:0] $end
$upscope $end
$scope module RA2SEL_mux $end
$var wire 5 #! In0 [15:11] $end
$var wire 5 $! In1 [25:21] $end
$var wire 1 ; sel $end
$var wire 5 [ Out [4:0] $end
$upscope $end
$scope module SXT $end
$var wire 16 %! In [15:0] $end
$var wire 32 I Out [31:0] $end
$upscope $end
$scope module Left_2 $end
$var wire 32 I In [31:0] $end
$var wire 32 J Out [31:0] $end
$upscope $end
$scope module Add $end
$var wire 32 J In0 [31:0] $end
$var wire 32 C In1 [31:0] $end
$var wire 32 ? Out [31:0] $end
$upscope $end
$scope module N $end
$var wire 32 F In [31:0] $end
$var wire 1 # Out $end
$upscope $end
$scope module ASEL_mux $end
$var wire 32 F In0 [31:0] $end
$var wire 32 ? In1 [31:0] $end
$var wire 1 : sel $end
$var wire 32 L Out [31:0] $end
$upscope $end
$scope module BSEL_mux $end
$var wire 32 G In0 [31:0] $end
$var wire 32 I In1 [31:0] $end
$var wire 1 9 sel $end
$var wire 32 N Out [31:0] $end
$upscope $end
$scope module ID_EX_PC $end
$var wire 1 2 clk $end
$var wire 1 3 reset $end
$var wire 32 C D [31:0] $end
$var reg 32 &! Q [31:0] $end
$upscope $end
$scope module ID_EX_IR $end
$var wire 1 2 clk $end
$var wire 1 3 reset $end
$var wire 32 g D [31:0] $end
$var reg 32 '! Q [31:0] $end
$upscope $end
$scope module A $end
$var wire 1 2 clk $end
$var wire 1 3 reset $end
$var wire 32 L D [31:0] $end
$var reg 32 (! Q [31:0] $end
$upscope $end
$scope module B $end
$var wire 1 2 clk $end
$var wire 1 3 reset $end
$var wire 32 N D [31:0] $end
$var reg 32 )! Q [31:0] $end
$upscope $end
$scope module D $end
$var wire 1 2 clk $end
$var wire 1 3 reset $end
$var wire 32 G D [31:0] $end
$var reg 32 *! Q [31:0] $end
$upscope $end
$scope module alu $end
$var wire 4 e alufn [3:0] $end
$var wire 32 M A [31:0] $end
$var wire 32 O B [31:0] $end
$var reg 32 +! Y [31:0] $end
$upscope $end
$scope module EX_MEM_PC $end
$var wire 1 2 clk $end
$var wire 1 3 reset $end
$var wire 32 K D [31:0] $end
$var reg 32 ,! Q [31:0] $end
$upscope $end
$scope module EX_MEM_IR $end
$var wire 1 2 clk $end
$var wire 1 3 reset $end
$var wire 32 T D [31:0] $end
$var reg 32 -! Q [31:0] $end
$upscope $end
$scope module Y1 $end
$var wire 1 2 clk $end
$var wire 1 3 reset $end
$var wire 32 Q D [31:0] $end
$var reg 32 .! Q [31:0] $end
$upscope $end
$scope module D1 $end
$var wire 1 2 clk $end
$var wire 1 3 reset $end
$var wire 32 P D [31:0] $end
$var reg 32 /! Q [31:0] $end
$upscope $end
$scope module DM $end
$var wire 1 2 clk $end
$var wire 32 V WD [31:0] $end
$var wire 32 R Addr [31:0] $end
$var wire 1 b RW $end
$var wire 1 ` OE $end
$var wire 32 W RD [31:0] $end
$upscope $end
$scope module WDSEL_mux $end
$var wire 32 S In0 [31:0] $end
$var wire 32 R In1 [31:0] $end
$var wire 32 W In2 [31:0] $end
$var wire 32 0! In3 [31:0] $end
$var wire 2 d sel [1:0] $end
$var reg 32 1! Out [31:0] $end
$upscope $end
$scope module MEM_WB_IR $end
$var wire 1 2 clk $end
$var wire 1 3 reset $end
$var wire 32 U D [31:0] $end
$var reg 32 2! Q [31:0] $end
$upscope $end
$scope module MEM_WB_PC $end
$var wire 1 2 clk $end
$var wire 1 3 reset $end
$var wire 32 S D [31:0] $end
$var reg 32 3! Q [31:0] $end
$upscope $end
$scope module Y2 $end
$var wire 1 2 clk $end
$var wire 1 3 reset $end
$var wire 32 X D [31:0] $end
$var reg 32 4! Q [31:0] $end
$upscope $end
$scope module WERF1 $end
$var wire 1 2 clk $end
$var wire 1 3 reset $end
$var wire 1 5! D $end
$var reg 1 6! Q $end
$upscope $end
$scope module WERF2 $end
$var wire 1 2 clk $end
$var wire 1 3 reset $end
$var wire 1 \ D $end
$var reg 1 7! Q $end
$upscope $end
$scope module WERF3 $end
$var wire 1 2 clk $end
$var wire 1 3 reset $end
$var wire 1 ] D $end
$var reg 1 8! Q $end
$upscope $end
$scope module MOE1 $end
$var wire 1 2 clk $end
$var wire 1 3 reset $end
$var wire 1 9! D $end
$var reg 1 :! Q $end
$upscope $end
$scope module MOE2 $end
$var wire 1 2 clk $end
$var wire 1 3 reset $end
$var wire 1 _ D $end
$var reg 1 ;! Q $end
$upscope $end
$scope module MWR1 $end
$var wire 1 2 clk $end
$var wire 1 3 reset $end
$var wire 1 <! D $end
$var reg 1 =! Q $end
$upscope $end
$scope module MWR2 $end
$var wire 1 2 clk $end
$var wire 1 3 reset $end
$var wire 1 a D $end
$var reg 1 >! Q $end
$upscope $end
$scope module WDSEL1 $end
$var wire 1 2 clk $end
$var wire 1 3 reset $end
$var wire 2 ?! D [1:0] $end
$var reg 2 @! Q [1:0] $end
$upscope $end
$scope module WDSEL2 $end
$var wire 1 2 clk $end
$var wire 1 3 reset $end
$var wire 2 c D [1:0] $end
$var reg 2 A! Q [1:0] $end
$upscope $end
$scope module ALUFN1 $end
$var wire 1 2 clk $end
$var wire 1 3 reset $end
$var wire 4 B! D [3:0] $end
$var reg 4 C! Q [3:0] $end
$upscope $end
$upscope $end
$scope module CU $end
$var wire 1 # z $end
$var wire 6 4 op [5:0] $end
$var reg 4 D! alufn [3:0] $end
$var reg 2 E! wdsel [1:0] $end
$var reg 2 F! pcsel [1:0] $end
$var reg 1 G! ra2sel $end
$var reg 1 H! asel $end
$var reg 1 I! bsel $end
$var reg 1 J! moe $end
$var reg 1 K! mwr $end
$var reg 1 L! werf $end
$upscope $end
$upscope $end
$scope function R $end
$var reg 32 M! R [31:0] $end
$var reg 6 N! op [5:0] $end
$var reg 5 O! rc [4:0] $end
$var reg 5 P! ra [4:0] $end
$var reg 5 Q! rb [4:0] $end
$upscope $end
$scope function C $end
$var reg 32 R! C [31:0] $end
$var reg 6 S! op [5:0] $end
$var reg 5 T! rc [4:0] $end
$var reg 5 U! ra [4:0] $end
$var reg 16 V! lit [15:0] $end
$upscope $end
$scope task clear_all $end
$upscope $end
$scope task apply_reset $end
$upscope $end
$scope task print_cycle $end
$var reg 256 W! test_name [255:0] $end
$upscope $end
$scope task run_cycles $end
$var integer 32 X! n [31:0] $end
$var reg 256 Y! test_name [255:0] $end
$upscope $end
$scope task check_reg $end
$var reg 5 Z! reg_no [4:0] $end
$var reg 32 [! expected [31:0] $end
$var reg 256 \! name [255:0] $end
$upscope $end
$scope task check_mem $end
$var reg 32 ]! addr [31:0] $end
$var reg 32 ^! expected [31:0] $end
$var reg 256 _! name [255:0] $end
$upscope $end
$scope task test_add_sub_src1_hazard $end
$upscope $end
$scope task test_add_sub_src2_hazard $end
$upscope $end
$scope task test_add_addc_hazard $end
$upscope $end
$scope task test_ld_add_hazard $end
$upscope $end
$scope task test_add_st_data_hazard $end
$upscope $end
$scope task test_add_st_address_hazard $end
$upscope $end
$upscope $end
$enddefinitions $end

#0
$dumpvars
0!
b0 !!
0"
b0 "!
1#
b0 #!
b0 $
b0 $!
b0 %
b0 %!
b0 &
b0 &!
b0 '
b0 '!
0(
b0 (!
0)
b0 )!
0*
b0 *!
0+
b0 +!
0,
b0 ,!
0-
b0 -!
b10000000000 .
b0 .!
b0 /
b0 /!
b0 0
b0 0!
b0 1
b0 1!
02
b0 2!
03
b0 3!
b0 4
b0 4!
b0 5
05!
b0 6
06!
b0 7
07!
08
08!
09
09!
0:
0:!
0;
0;!
0<
0<!
0=
0=!
b100 >
0>!
b0 ?
b0 ?!
b0 @
b0 @!
b100 A
b0 A!
b0 B
b0 B!
b0 C
b0 C!
b10000000001000100001100000000000 D
b0 D!
b0 E
b0 E!
b0 F
b0 F!
b0 G
0G!
b0 H
0H!
b0 I
0I!
b0 J
0J!
b0 K
0K!
b0 L
0L!
b0 M
b10000100100000010010100000000000 M!
b0 N
b100001 N!
b0 O
b100 O!
b0 P
b1 P!
b0 Q
b101 Q!
b0 R
bx R!
b0 S
bx S!
b0 T
bx T!
b0 U
bx U!
b0 V
bx V!
b0 W
bx W!
b0 X
bx X!
b0 Y
bx Y!
b0 Z
bx Z!
b0 [
bx [!
0\
bx \!
0]
bx ]!
0^
bx ^!
0_
bx _!
0`
0a
0b
b0 c
b0 d
b0 e
0f
b0 g
b0 h
b0 i
b0 j
b0 k
b0 l
b0 m
1n
0o
0p
0q
0r
0s
0t
0u
0v
0w
0x
b0 y
b100 z
1{
b0 |
b0 }
b0 ~
$end

#5000
1!
12

#10000
0!
02

#15000
1!
12

#16000
1"
b0 .
13
b1101 X!
b1000001010001000100010001011111010100110101010101000010010111110101001101010010010000110011000101011111010010000100000101011010010000010101001001000100 Y!

#20000
0!
02

#25000
1!
b10 !!
0#
b11 #!
b100000 $
b1 $!
b1100000000000 %!
b1 &
1(
12
b100000 4
15!
b1 6
18
b1000 >
b110000000000100 ?
b1 ?!
b111 @
b1000 A
b100 B
b100 C
b10000100100000010010100000000000 D
b1 E!
b111 F
b100 G
b10000000001000100001100000000000 H
b1100000000000 I
b110000000000000 J
b111 L
1L!
b100 N
b11 [
b10000000001000100001100000000000 g
b100000 h
b10 i
b11 j
1o
1p
b1000 z
b100 |
b100 }
b10000000001000100001100000000000 ~

#26000
b1 .
b1 /
b1000001010001000100010001011111010100110101010101000010010111110101001101010010010000110011000101011111010010000100000101011010010000010101001001000100 W!

#30000
0!
02

#35000
1!
b1 !!
1#
b101 #!
b100001 $
b100 $!
b1 %
b10100000000000 %!
b100 &!
b10000000001000100001100000000000 '!
b111 (!
b100 )!
b100 *!
b1011 +!
12
b100001 4
b1 5
05!
16!
b1100 >
b1010000000001000 ?
b0 ?!
b0 @
b1 @!
b1100 A
b1000 B
b1000 C
b0 D
b1 D!
b1 E!
b0 F
b10 G
b10000100100000010010100000000000 H
b10100000000000 I
b1010000000000000 J
b100 K
b0 L
1L!
b111 M
b10 N
b100 O
b100 P
b1011 Q
b10000000001000100001100000000000 T
b101 [
1\
b1 c
1f
b10000011111111111111100000000000 g
b100001 h
b1 i
b101 j
b1 k
1s
b1100 z
0{
b1000 |
b1000 }
b10000100100000010010100000000000 ~

#36000
b10 .
b10 /

#40000
0!
02

#45000
1!
b1000 &!
b10000011111111111111100000000000 '!
b0 (!
b10 )!
b10 *!
b10 +!
b100 ,!
b10000000001000100001100000000000 -!
b1011 .!
b100 /!
b1011 1!
12
06!
17!
b0 @!
b1 A!
b1000 K
b0 M
b10 O
b10 P
b10 Q
b1011 R
b100 S
b10000011111111111111100000000000 T
b10000000001000100001100000000000 U
b100 V
b1011 X
0\
1]
b0 c
b1 d
b11111 k
b1 l
0s
1u

#46000
b11 .
b11 /

#50000
0!
02

#55000
1!
b1 "!
b1000 ,!
b10000011111111111111100000000000 -!
b10 .!
b10 /!
b1000 1!
12
b10000000001000100001100000000000 2!
b100 3!
b1011 4!
07!
18!
b0 A!
b1011 E
b10 R
b1000 S
b10000011111111111111100000000000 U
b10 V
b1000 X
b10000000001000100001100000000000 Y
b100 Z
0]
1^
b0 d
b11111 l
b1 m
0u
1w

#56000
b100 .
b100 /

#60000
0!
02

#65000
1!
b11111 "!
0#
12
b10000011111111111111100000000000 2!
b1000 3!
b1000 4!
15!
08!
b1 ?!
b1011 @
b1 B!
b1 D!
b1000 E
b1 E!
b1011 F
b1011 L
1L!
b10000011111111111111100000000000 Y
b1000 Z
0^
0f
b10000100100000010010100000000000 g
b11111 m
0w
1{

#66000
b101 .
b101 /

#70000
0!
02

#75000
1!
b0 !!
1#
b0 #!
b0 $
b0 $!
b0 %
b0 %!
b0 &
b10000100100000010010100000000000 '!
0(
b1011 (!
b1001 +!
12
b0 4
b0 5
05!
b0 6
16!
08
b10000 >
b1100 ?
b0 ?!
b0 @
b1 @!
b10000 A
b1100 B
b0 B!
b1100 C
b1 C!
b0 D!
b0 E!
b0 F
b0 G
b0 H
b0 I
b0 J
b0 L
0L!
b1011 M
b0 N
b1001 Q
b10000100100000010010100000000000 T
b0 [
1\
b1 c
b1 e
b0 g
b0 h
b0 i
b0 j
b100 k
0o
0p
b10000 z
b1100 |
b1100 }
b0 ~

#76000
b110 .
b110 /

#80000
0!
02

#85000
1!
b1100 &!
b0 '!
b0 (!
b0 )!
b0 *!
b0 +!
b10000100100000010010100000000000 -!
b1001 .!
b1001 1!
12
06!
17!
b10100 >
b10000 ?
b0 @!
b10100 A
b1 A!
b10000 B
b10000 C
b0 C!
b1100 K
b0 M
b0 O
b0 P
b0 Q
b1001 R
b0 T
b10000100100000010010100000000000 U
b1001 X
0\
1]
b0 c
b1 d
b0 e
b0 k
b100 l
b10100 z
b10000 |
b10000 }

#86000
b111 .
b111 /

#90000
0!
02

#95000
1!
b100 "!
b10000 &!
b1100 ,!
b0 -!
b0 .!
b0 /!
b1100 1!
12
b10000100100000010010100000000000 2!
b1001 4!
07!
18!
b11000 >
b10100 ?
b11000 A
b0 A!
b10100 B
b10100 C
b1001 E
b10000 K
b0 R
b1100 S
b0 U
b0 V
b1100 X
b10000100100000010010100000000000 Y
0]
1^
b0 d
b0 l
b100 m
b11000 z
b10100 |
b10100 }

#96000
b1000 .
b1000 /

#100000
0!
02

#105000
1!
b0 "!
b10100 &!
b10000 ,!
b10000 1!
12
b0 2!
b1100 3!
b1100 4!
08!
b11100 >
b11000 ?
b11100 A
b11000 B
b11000 C
b1100 E
b10100 K
b10000 S
b10000 X
b0 Y
b1100 Z
0^
b0 m
b11100 z
b11000 |
b11000 }

#106000
b1001 .
b1001 /

#110000
0!
02

#115000
1!
b11000 &!
b10100 ,!
b10100 1!
12
b10000 3!
b10000 4!
b100000 >
b11100 ?
b100000 A
b11100 B
b11100 C
b10000 E
b11000 K
b10100 S
b10100 X
b10000 Z
b100000 z
b11100 |
b11100 }

#116000
b1010 .
b1010 /

#120000
0!
02

#125000
1!
b11100 &!
b11000 ,!
b11000 1!
12
b10100 3!
b10100 4!
b100100 >
b100000 ?
b100100 A
b100000 B
b100000 C
bx D
b10100 E
b11100 K
b11000 S
b11000 X
b10100 Z
b100100 z
b100000 |
b100000 }

#126000
b1011 .
b1011 /

#130000
0!
02

#135000
1!
bx !!
x#
bx #!
bx $
bx $!
bx %!
b100000 &!
b11100 ,!
b11100 1!
12
b11000 3!
bx 4
b11000 4!
b101000 >
bx ?
bx @
b101000 A
b100100 B
b100100 C
b11000 E
bx F
bx G
bx H
bx I
bx00 J
b100000 K
bx L
bx N
b11100 S
b11100 X
b11000 Z
bx [
bx g
bx h
bx i
bx j
xn
xo
xp
xq
xr
b101000 z
b100100 |
b100100 }
bx ~

#136000
b1100 .
b1100 /

#140000
0!
02

#145000
1!
b100100 &!
bx '!
bx (!
bx )!
bx *!
bx +!
b100000 ,!
b100000 1!
12
b11100 3!
b11100 4!
b101100 >
b101100 A
b101000 B
b101000 C
b11100 E
b100100 K
bx M
bx O
bx P
bx Q
b100000 S
bx T
b100000 X
b11100 Z
bx k
b101100 z
b101000 |
b101000 }

#146000
b0 !!
0"
1#
b0 #!
b0 $
b0 $!
b0 %!
b0 &!
b0 '!
b0 (!
b0 )!
b0 *!
b0 +!
b0 ,!
b10000000000 .
b1101 /
b10 0
b0 1!
03
b0 3!
b0 4
b0 4!
b100 >
b0 ?
b0 @
b100 A
b0 B
b0 C
b10000000001000100001100000000000 D
b0 E
b0 F
b0 G
b0 H
b0 I
b0 J
b0 K
b0 L
b0 M
b10000100100001010000100000000000 M!
b0 N
b100001 N!
b0 O
b100 O!
b0 P
b101 P!
b0 Q
b1 Q!
b0 S
b0 T
b0 X
b0 Z
b100 Z!
b0 [
b1001 [!
b1010011010101010100001000100000011101010111001101100101011100110010000001110011011101000110000101101100011011000110010101100100001000000101001000110001001000000110000101110011001000000101001001000001 \!
b0 g
b0 h
b0 i
b0 j
b0 k
1n
0o
0p
0q
0r
b100 z
b0 |
b0 }
b0 ~

#150000
0!
02

#155000
1!
12

#160000
0!
02

#165000
1!
12

#166000
1"
b0 .
b0 /
13
b1000001010001000100010001011111010100110101010101000010010111110101001101010010010000110011001001011111010010000100000101011010010000010101001001000100 Y!

#170000
0!
02

#175000
1!
b10 !!
0#
b11 #!
b100000 $
b1 $!
b1100000000000 %!
b1 &
1(
12
b100000 4
15!
b1 6
18
b1000 >
b110000000000100 ?
b1 ?!
b111 @
b1000 A
b100 B
b100 C
b10000100100001010000100000000000 D
b1 E!
b111 F
b100 G
b10000000001000100001100000000000 H
b1100000000000 I
b110000000000000 J
b111 L
1L!
b100 N
b11 [
b10000000001000100001100000000000 g
b100000 h
b10 i
b11 j
1o
1p
b1000 z
b100 |
b100 }
b10000000001000100001100000000000 ~

#176000
b1 .
b1 /
b1000001010001000100010001011111010100110101010101000010010111110101001101010010010000110011001001011111010010000100000101011010010000010101001001000100 W!

#180000
0!
02

#185000
1!
b101 !!
b1 #!
b100001 $
b100 $!
b1 %
b100000000000 %!
b100 &!
b10000000001000100001100000000000 '!
b111 (!
b100 )!
b100 *!
b1011 +!
12
b100001 4
b1 5
05!
16!
b1100 >
b10000000001000 ?
b0 ?!
b10100 @
b1 @!
b1100 A
b1000 B
b1000 C
b0 D
b1 D!
b1 E!
b10100 F
b0 G
b10000100100001010000100000000000 H
b100000000000 I
b10000000000000 J
b100 K
b10100 L
1L!
b111 M
b0 N
b100 O
b100 P
b1011 Q
b10000000001000100001100000000000 T
b1 [
1\
b1 c
1f
b10000011111111111111100000000000 g
b100001 h
b101 i
b1 j
b1 k
1t
b1100 z
0{
b1000 |
b1000 }
b10000100100001010000100000000000 ~

#186000
b10 .
b10 /

#190000
0!
02

#195000
1!
b1000 &!
b10000011111111111111100000000000 '!
b10100 (!
b0 )!
b0 *!
b10100 +!
b100 ,!
b10000000001000100001100000000000 -!
b1011 .!
b100 /!
b1011 1!
12
06!
17!
b0 @!
b1 A!
b1000 K
b10100 M
b0 O
b0 P
b10100 Q
b1011 R
b100 S
b10000011111111111111100000000000 T
b10000000001000100001100000000000 U
b100 V
b1011 X
0\
1]
b0 c
b1 d
b11111 k
b1 l
0t
1v

#196000
b11 .
b11 /

#200000
0!
02

#205000
1!
b1 "!
b1000 ,!
b10000011111111111111100000000000 -!
b10100 .!
b0 /!
b1000 1!
12
b10000000001000100001100000000000 2!
b100 3!
b1011 4!
07!
18!
b0 A!
b1011 E
b10100 R
b1000 S
b10000011111111111111100000000000 U
b0 V
b1000 X
b10000000001000100001100000000000 Y
b100 Z
0]
1^
b0 d
b11111 l
b1 m
0v
1x

#206000
b100 .
b100 /

#210000
0!
02

#215000
1!
b11111 "!
12
b10000011111111111111100000000000 2!
b1000 3!
b1000 4!
15!
08!
b1 ?!
b1 B!
b1000 E
b1011 G
b1011 N
b10000011111111111111100000000000 Y
b1000 Z
0^
0f
b10000100100001010000100000000000 g
b11111 m
0x
1{

#216000
b101 .
b101 /

#220000
0!
02

#225000
1!
b0 !!
1#
b0 #!
b0 $
b0 $!
b0 %
b0 %!
b0 &
b10000100100001010000100000000000 '!
0(
b1011 )!
b1011 *!
b1001 +!
12
b0 4
b0 5
05!
b0 6
16!
08
b10000 >
b1100 ?
b0 ?!
b0 @
b1 @!
b10000 A
b1100 B
b0 B!
b1100 C
b1 C!
b0 D!
b0 E!
b0 F
b0 G
b0 H
b0 I
b0 J
b0 L
0L!
b0 N
b1011 O
b1011 P
b1001 Q
b10000100100001010000100000000000 T
b0 [
1\
b1 c
b1 e
b0 g
b0 h
b0 i
b0 j
b100 k
0o
0p
b10000 z
b1100 |
b1100 }
b0 ~

#226000
b110 .
b110 /

#230000
0!
02

#235000
1!
b1100 &!
b0 '!
b0 (!
b0 )!
b0 *!
b0 +!
b10000100100001010000100000000000 -!
b1001 .!
b1011 /!
b1001 1!
12
06!
17!
b10100 >
b10000 ?
b0 @!
b10100 A
b1 A!
b10000 B
b10000 C
b0 C!
b1100 K
b0 M
b0 O
b0 P
b0 Q
b1001 R
b0 T
b10000100100001010000100000000000 U
b1011 V
b1001 X
0\
1]
b0 c
b1 d
b0 e
b0 k
b100 l
b10100 z
b10000 |
b10000 }

#236000
b111 .
b111 /

#240000
0!
02

#245000
1!
b100 "!
b10000 &!
b1100 ,!
b0 -!
b0 .!
b0 /!
b1100 1!
12
b10000100100001010000100000000000 2!
b1001 4!
07!
18!
b11000 >
b10100 ?
b11000 A
b0 A!
b10100 B
b10100 C
b1001 E
b10000 K
b0 R
b1100 S
b0 U
b0 V
b1100 X
b10000100100001010000100000000000 Y
0]
1^
b0 d
b0 l
b100 m
b11000 z
b10100 |
b10100 }

#246000
b1000 .
b1000 /

#250000
0!
02

#255000
1!
b0 "!
b10100 &!
b10000 ,!
b10000 1!
12
b0 2!
b1100 3!
b1100 4!
08!
b11100 >
b11000 ?
b11100 A
b11000 B
b11000 C
b1100 E
b10100 K
b10000 S
b10000 X
b0 Y
b1100 Z
0^
b0 m
b11100 z
b11000 |
b11000 }

#256000
b1001 .
b1001 /

#260000
0!
02

#265000
1!
b11000 &!
b10100 ,!
b10100 1!
12
b10000 3!
b10000 4!
b100000 >
b11100 ?
b100000 A
b11100 B
b11100 C
b10000 E
b11000 K
b10100 S
b10100 X
b10000 Z
b100000 z
b11100 |
b11100 }

#266000
b1010 .
b1010 /

#270000
0!
02

#275000
1!
b11100 &!
b11000 ,!
b11000 1!
12
b10100 3!
b10100 4!
b100100 >
b100000 ?
b100100 A
b100000 B
b100000 C
bx D
b10100 E
b11100 K
b11000 S
b11000 X
b10100 Z
b100100 z
b100000 |
b100000 }

#276000
b1011 .
b1011 /

#280000
0!
02

#285000
1!
bx !!
x#
bx #!
bx $
bx $!
bx %!
b100000 &!
b11100 ,!
b11100 1!
12
b11000 3!
bx 4
b11000 4!
b101000 >
bx ?
bx @
b101000 A
b100100 B
b100100 C
b11000 E
bx F
bx G
bx H
bx I
bx00 J
b100000 K
bx L
bx N
b11100 S
b11100 X
b11000 Z
bx [
bx g
bx h
bx i
bx j
xn
xo
xp
xq
xr
b101000 z
b100100 |
b100100 }
bx ~

#286000
b1100 .
b1100 /

#290000
0!
02

#295000
1!
b100100 &!
bx '!
bx (!
bx )!
bx *!
bx +!
b100000 ,!
b100000 1!
12
b11100 3!
b11100 4!
b101100 >
b101100 A
b101000 B
b101000 C
b11100 E
b100100 K
bx M
bx O
bx P
bx Q
b100000 S
bx T
b100000 X
b11100 Z
bx k
b101100 z
b101000 |
b101000 }

#296000
b0 !!
0"
1#
b0 #!
b0 $
b0 $!
b0 %!
b0 &!
b0 '!
b0 (!
b0 )!
b0 *!
b0 +!
b0 ,!
b10000000000 .
b1101 /
b100 0
b0 1!
03
b0 3!
b0 4
b0 4!
b100 >
b0 ?
b0 @
b100 A
b0 B
b0 C
b10000000001000100001100000000000 D
b0 E
b0 F
b0 G
b0 H
b0 I
b0 J
b0 K
b0 L
b0 M
b10000000001000100001100000000000 M!
b0 N
b100000 N!
b0 O
b1 O!
b0 P
b10 P!
b0 Q
b11 Q!
b11000000100000010000000000000101 R!
b0 S
b110000 S!
b0 T
b100 T!
b1 U!
b101 V!
b0 X
b0 Z
b100 Z!
b0 [
b1001 [!
b1010011010101010100001000100000011101010111001101100101011100110010000001110011011101000110000101101100011011000110010101100100001000000101001000110001001000000110000101110011001000000101001001000010 \!
b0 g
b0 h
b0 i
b0 j
b0 k
1n
0o
0p
0q
0r
b100 z
b0 |
b0 }
b0 ~

#300000
0!
02

#305000
1!
12

#310000
0!
02

#315000
1!
12

#316000
1"
b0 .
b0 /
13
b10000010100010001000100010111110100000101000100010001000100001101011111010010000100000101011010010000010101001001000100 Y!

