Beta_Processor.sim/sim_1/behav/xsim/top_branch_memory.vcd
$date
   Sat Jun 27 15:31:37 2026
$end

$version
  2024.2.0
  $dumpfile ("top_branch_memory.vcd") 
$end

$timescale
  1ps
$end

$scope module tb_Top_Branch_Memory $end
$var reg 1 ! clk $end
$var reg 1 " reset $end
$var wire 1 # z $end
$var wire 6 $ opcode [5:0] $end
$var wire 4 % alufn_debug [3:0] $end
$var wire 2 & wdsel_debug [1:0] $end
$var wire 2 ' pcsel_debug [1:0] $end
$var wire 1 ( werf_debug $end
$var wire 1 ) bsel_debug $end
$var wire 1 * asel_debug $end
$var wire 1 + mwr_debug $end
$var wire 1 , moe_debug $end
$var wire 1 - ra2sel_debug $end
$var integer 32 . i [31:0] $end
$var integer 32 / pass_count [31:0] $end
$var integer 32 0 fail_count [31:0] $end
$scope module dut $end
$var wire 1 1 clk $end
$var wire 1 2 reset $end
$var wire 1 # z $end
$var wire 6 $ opcode [5:0] $end
$var wire 4 % alufn_debug [3:0] $end
$var wire 2 & wdsel_debug [1:0] $end
$var wire 2 ' pcsel_debug [1:0] $end
$var wire 1 ( werf_debug $end
$var wire 1 ) bsel_debug $end
$var wire 1 * asel_debug $end
$var wire 1 + mwr_debug $end
$var wire 1 , moe_debug $end
$var wire 1 - ra2sel_debug $end
$var wire 6 3 Out [5:0] $end
$var wire 4 4 alufn [3:0] $end
$var wire 2 5 wdsel [1:0] $end
$var wire 2 6 pcsel [1:0] $end
$var wire 1 7 werf $end
$var wire 1 8 bsel $end
$var wire 1 9 asel $end
$var wire 1 : ra2sel $end
$var wire 1 ; mwr $end
$var wire 1 < moe $end
$scope module DU $end
$var wire 1 1 clk $end
$var wire 1 2 reset $end
$var wire 4 4 alufn [3:0] $end
$var wire 2 5 wdsel [1:0] $end
$var wire 2 6 pcsel [1:0] $end
$var wire 1 7 werf $end
$var wire 1 8 bsel $end
$var wire 1 9 asel $end
$var wire 1 ; mwr $end
$var wire 1 < moe $end
$var wire 1 : ra2sel $end
$var wire 1 # z $end
$var wire 6 3 Out [5:0] $end
$var wire 32 = PC_plus4 [31:0] $end
$var wire 32 > PC_Adder [31:0] $end
$var wire 32 ? JT [31:0] $end
$var wire 32 @ PC_in [31:0] $end
$var wire 32 A PC_out [31:0] $end
$var wire 32 B IF_ID_PC_out [31:0] $end
$var wire 32 C IM_out [31:0] $end
$var wire 32 D WD [31:0] $end
$var wire 32 E RD1 [31:0] $end
$var wire 32 F RD2 [31:0] $end
$var wire 32 G IF_ID_IR_out [31:0] $end
$var wire 32 H SXT_out [31:0] $end
$var wire 32 I LS_out [31:0] $end
$var wire 32 J IF_EX_PC_out [31:0] $end
$var wire 32 K A_in [31:0] $end
$var wire 32 L A_out [31:0] $end
$var wire 32 M B_in [31:0] $end
$var wire 32 N B_out [31:0] $end
$var wire 32 O D_out [31:0] $end
$var wire 32 P Y1_in [31:0] $end
$var wire 32 Q Y1_out [31:0] $end
$var wire 32 R EX_MEM_PC_out [31:0] $end
$var wire 32 S ID_EX_IR_out [31:0] $end
$var wire 32 T EX_MEM_IR_out [31:0] $end
$var wire 32 U D1_out [31:0] $end
$var wire 32 V RD [31:0] $end
$var wire 32 W WDSEL_out [31:0] $end
$var wire 32 X MEM_WB_IR_out [31:0] $end
$var wire 32 Y MEM_WB_PC_out [31:0] $end
$var wire 5 Z RA2SEL_out [4:0] $end
$var wire 1 [ werf_ex $end
$var wire 1 \ werf_mem $end
$var wire 1 ] werf_wb $end
$var wire 1 ^ moe_ex $end
$var wire 1 _ moe_mem $end
$var wire 1 ` mwr_ex $end
$var wire 1 a mwr_mem $end
$var wire 2 b wdsel_ex [1:0] $end
$var wire 2 c wdsel_mem [1:0] $end
$var wire 4 d alufn_ex [3:0] $end
$scope module PCSEL_multiplexer $end
$var wire 32 = In0 [31:0] $end
$var wire 32 > In1 [31:0] $end
$var wire 32 ? In2 [31:0] $end
$var wire 32 e In3 [31:0] $end
$var wire 2 6 sel [1:0] $end
$var reg 32 f Out [31:0] $end
$upscope $end
$scope module PC $end
$var wire 1 1 clk $end
$var wire 1 2 reset $end
$var wire 32 @ D [31:0] $end
$var reg 32 g Q [31:0] $end
$upscope $end
$scope module PC_nxt $end
$var wire 32 A PC [31:0] $end
$var wire 32 = PC_next [31:0] $end
$upscope $end
$scope module IF_ID_PC $end
$var wire 1 1 clk $end
$var wire 1 2 reset $end
$var wire 32 = D [31:0] $end
$var reg 32 h Q [31:0] $end
$upscope $end
$scope module IM $end
$var wire 32 A Addr [31:0] $end
$var wire 32 C Out [31:0] $end
$upscope $end
$scope module IF_ID_IR $end
$var wire 1 1 clk $end
$var wire 1 2 reset $end
$var wire 32 C D [31:0] $end
$var reg 32 i Q [31:0] $end
$upscope $end
$scope module RF $end
$var wire 1 1 clk $end
$var wire 5 j RA1 [20:16] $end
$var wire 5 Z RA2 [4:0] $end
$var wire 5 k WA [25:21] $end
$var wire 1 ] WE $end
$var wire 32 D WD [31:0] $end
$var wire 32 E RD1 [31:0] $end
$var wire 32 F RD2 [31:0] $end
$upscope $end
$scope module RA2SEL_mux $end
$var wire 5 l In0 [15:11] $end
$var wire 5 m In1 [25:21] $end
$var wire 1 : sel $end
$var wire 5 Z Out [4:0] $end
$upscope $end
$scope module SXT $end
$var wire 16 n In [15:0] $end
$var wire 32 H Out [31:0] $end
$upscope $end
$scope module Left_2 $end
$var wire 32 H In [31:0] $end
$var wire 32 I Out [31:0] $end
$upscope $end
$scope module Add $end
$var wire 32 I In0 [31:0] $end
$var wire 32 B In1 [31:0] $end
$var wire 32 > Out [31:0] $end
$upscope $end
$scope module N $end
$var wire 32 E In [31:0] $end
$var wire 1 # Out $end
$upscope $end
$scope module ASEL_mux $end
$var wire 32 E In0 [31:0] $end
$var wire 32 > In1 [31:0] $end
$var wire 1 9 sel $end
$var wire 32 K Out [31:0] $end
$upscope $end
$scope module BSEL_mux $end
$var wire 32 F In0 [31:0] $end
$var wire 32 H In1 [31:0] $end
$var wire 1 8 sel $end
$var wire 32 M Out [31:0] $end
$upscope $end
$scope module ID_EX_PC $end
$var wire 1 1 clk $end
$var wire 1 2 reset $end
$var wire 32 B D [31:0] $end
$var reg 32 o Q [31:0] $end
$upscope $end
$scope module ID_EX_IR $end
$var wire 1 1 clk $end
$var wire 1 2 reset $end
$var wire 32 G D [31:0] $end
$var reg 32 p Q [31:0] $end
$upscope $end
$scope module A $end
$var wire 1 1 clk $end
$var wire 1 2 reset $end
$var wire 32 K D [31:0] $end
$var reg 32 q Q [31:0] $end
$upscope $end
$scope module B $end
$var wire 1 1 clk $end
$var wire 1 2 reset $end
$var wire 32 M D [31:0] $end
$var reg 32 r Q [31:0] $end
$upscope $end
$scope module D $end
$var wire 1 1 clk $end
$var wire 1 2 reset $end
$var wire 32 F D [31:0] $end
$var reg 32 s Q [31:0] $end
$upscope $end
$scope module alu $end
$var wire 4 d alufn [3:0] $end
$var wire 32 L A [31:0] $end
$var wire 32 N B [31:0] $end
$var reg 32 t Y [31:0] $end
$upscope $end
$scope module EX_MEM_PC $end
$var wire 1 1 clk $end
$var wire 1 2 reset $end
$var wire 32 J D [31:0] $end
$var reg 32 u Q [31:0] $end
$upscope $end
$scope module EX_MEM_IR $end
$var wire 1 1 clk $end
$var wire 1 2 reset $end
$var wire 32 S D [31:0] $end
$var reg 32 v Q [31:0] $end
$upscope $end
$scope module Y1 $end
$var wire 1 1 clk $end
$var wire 1 2 reset $end
$var wire 32 P D [31:0] $end
$var reg 32 w Q [31:0] $end
$upscope $end
$scope module D1 $end
$var wire 1 1 clk $end
$var wire 1 2 reset $end
$var wire 32 O D [31:0] $end
$var reg 32 x Q [31:0] $end
$upscope $end
$scope module DM $end
$var wire 1 1 clk $end
$var wire 32 U WD [31:0] $end
$var wire 32 Q Addr [31:0] $end
$var wire 1 a RW $end
$var wire 1 _ OE $end
$var wire 32 V RD [31:0] $end
$upscope $end
$scope module WDSEL_mux $end
$var wire 32 R In0 [31:0] $end
$var wire 32 Q In1 [31:0] $end
$var wire 32 V In2 [31:0] $end
$var wire 32 y In3 [31:0] $end
$var wire 2 c sel [1:0] $end
$var reg 32 z Out [31:0] $end
$upscope $end
$scope module MEM_WB_IR $end
$var wire 1 1 clk $end
$var wire 1 2 reset $end
$var wire 32 T D [31:0] $end
$var reg 32 { Q [31:0] $end
$upscope $end
$scope module MEM_WB_PC $end
$var wire 1 1 clk $end
$var wire 1 2 reset $end
$var wire 32 R D [31:0] $end
$var reg 32 | Q [31:0] $end
$upscope $end
$scope module Y2 $end
$var wire 1 1 clk $end
$var wire 1 2 reset $end
$var wire 32 W D [31:0] $end
$var reg 32 } Q [31:0] $end
$upscope $end
$scope module WERF1 $end
$var wire 1 1 clk $end
$var wire 1 2 reset $end
$var wire 1 7 D $end
$var reg 1 ~ Q $end
$upscope $end
$scope module WERF2 $end
$var wire 1 1 clk $end
$var wire 1 2 reset $end
$var wire 1 [ D $end
$var reg 1 !! Q $end
$upscope $end
$scope module WERF3 $end
$var wire 1 1 clk $end
$var wire 1 2 reset $end
$var wire 1 \ D $end
$var reg 1 "! Q $end
$upscope $end
$scope module MOE1 $end
$var wire 1 1 clk $end
$var wire 1 2 reset $end
$var wire 1 < D $end
$var reg 1 #! Q $end
$upscope $end
$scope module MOE2 $end
$var wire 1 1 clk $end
$var wire 1 2 reset $end
$var wire 1 ^ D $end
$var reg 1 $! Q $end
$upscope $end
$scope module MWR1 $end
$var wire 1 1 clk $end
$var wire 1 2 reset $end
$var wire 1 ; D $end
$var reg 1 %! Q $end
$upscope $end
$scope module MWR2 $end
$var wire 1 1 clk $end
$var wire 1 2 reset $end
$var wire 1 ` D $end
$var reg 1 &! Q $end
$upscope $end
$scope module WDSEL1 $end
$var wire 1 1 clk $end
$var wire 1 2 reset $end
$var wire 2 5 D [1:0] $end
$var reg 2 '! Q [1:0] $end
$upscope $end
$scope module WDSEL2 $end
$var wire 1 1 clk $end
$var wire 1 2 reset $end
$var wire 2 b D [1:0] $end
$var reg 2 (! Q [1:0] $end
$upscope $end
$scope module ALUFN1 $end
$var wire 1 1 clk $end
$var wire 1 2 reset $end
$var wire 4 4 D [3:0] $end
$var reg 4 )! Q [3:0] $end
$upscope $end
$upscope $end
$scope module CU $end
$var wire 1 # z $end
$var wire 6 3 op [5:0] $end
$var reg 4 *! alufn [3:0] $end
$var reg 2 +! wdsel [1:0] $end
$var reg 2 ,! pcsel [1:0] $end
$var reg 1 -! ra2sel $end
$var reg 1 .! asel $end
$var reg 1 /! bsel $end
$var reg 1 0! moe $end
$var reg 1 1! mwr $end
$var reg 1 2! werf $end
$upscope $end
$upscope $end
$scope function C $end
$var reg 32 3! C [31:0] $end
$var reg 6 4! op [5:0] $end
$var reg 5 5! rc [4:0] $end
$var reg 5 6! ra [4:0] $end
$var reg 16 7! lit [15:0] $end
$upscope $end
$scope task clear_all $end
$upscope $end
$scope task apply_reset $end
$upscope $end
$scope task run_cycles $end
$var integer 32 8! n [31:0] $end
$upscope $end
$scope task check_reg $end
$var reg 5 9! reg_no [4:0] $end
$var reg 32 :! expected [31:0] $end
$var reg 256 ;! name [255:0] $end
$upscope $end
$scope task check_mem $end
$var reg 32 <! addr [31:0] $end
$var reg 32 =! expected [31:0] $end
$var reg 256 >! name [255:0] $end
$upscope $end
$scope task test_LD $end
$upscope $end
$scope task test_ST $end
$upscope $end
$scope task test_LDR $end
$upscope $end
$scope task test_JMP $end
$upscope $end
$scope task test_BEQ_taken $end
$upscope $end
$scope task test_BEQ_not_taken $end
$upscope $end
$scope task test_BNE_taken $end
$upscope $end
$scope task test_BNE_not_taken $end
$upscope $end
$upscope $end
$enddefinitions $end

#0
$dumpvars
0!
0!!
0"
0"!
1#
0#!
b0 $
0$!
b0 %
0%!
b0 &
0&!
b0 '
b0 '!
0(
b0 (!
0)
b0 )!
0*
b0 *!
0+
b0 +!
0,
b0 ,!
0-
0-!
b10000000000 .
0.!
b0 /
0/!
b0 0
00!
01
01!
02
02!
b0 3
b1100000001000100000000000000000 3!
b0 4
b11000 4!
b0 5
b1 5!
b0 6
b10 6!
07
b0 7!
08
bx 8!
09
bx 9!
0:
bx :!
0;
bx ;!
0<
bx <!
b100 =
bx =!
b0 >
bx >!
b0 ?
b100 @
b0 A
b0 B
b1100000001000100000000000000000 C
b0 D
b0 E
b0 F
b0 G
b0 H
b0 I
b0 J
b0 K
b0 L
b0 M
b0 N
b0 O
b0 P
b0 Q
b0 R
b0 S
b0 T
b0 U
b0 V
b0 W
b0 X
b0 Y
b0 Z
0[
0\
0]
0^
0_
0`
0a
b0 b
b0 c
b0 d
b0 e
b100 f
b0 g
b0 h
b0 i
b0 j
b0 k
b0 l
b0 m
b0 n
b0 o
b0 p
b0 q
b0 r
b0 s
b0 t
b0 u
b0 v
b0 w
b0 x
b0 y
b0 z
b0 {
b0 |
b0 }
0~
$end

#5000
1!
11

#10000
0!
01

#15000
1!
11

#17000
1"
12

#20000
0!
01
b1001 8!

#25000
1!
0#
b11000 $
b10 &
1(
1)
b10 +!
1,
1/!
10!
11
12!
b11000 3
b10 5
17
18
1<
b1000 =
b100 >
b11 ?
b1000 @
b100 A
b100 B
b0 C
b11 E
b1100000001000100000000000000000 G
b11 K
b1000 f
b100 g
b100 h
b1100000001000100000000000000000 i
b10 j
b0 l
b1 m
b0 n

#30000
0!
01

#35000
1!
1#
1#!
b0 $
b0 &
b10 '!
0(
0)
b0 +!
0,
0/!
00!
11
02!
b0 3
b0 5
07
08
0<
b1100 =
b1000 >
b0 ?
b1100 @
b1000 A
b1000 B
b0 E
b0 G
b100 J
b0 K
b11 L
b11 P
b1100000001000100000000000000000 S
1[
1^
b10 b
b1100 f
b1000 g
b1000 h
b0 i
b0 j
b0 l
b0 m
b0 n
b100 o
b1100000001000100000000000000000 p
b11 q
b11 t
1~

#40000
0!
01

#45000
1!
1!!
0#!
1$!
b0 '!
b10 (!
11
b10000 =
b1100 >
b10000 @
b1100 A
b1100 B
b1000 J
b0 L
b0 P
b11 Q
b100 R
b0 S
b1100000001000100000000000000000 T
b10100101101001010101101001011010 V
b10100101101001010101101001011010 W
0[
1\
0^
1_
b0 b
b10 c
b10000 f
b1100 g
b1100 h
b1000 o
b0 p
b0 q
b0 t
b100 u
b1100000001000100000000000000000 v
b11 w
b10100101101001010101101001011010 z
0~

#50000
0!
01

#55000
1!
0!!
1"!
0$!
b0 (!
11
b10100 =
b10000 >
b10100 @
b10000 A
b10000 B
b10100101101001010101101001011010 D
b1100 J
b0 Q
b1000 R
b0 T
b0 V
b1000 W
b1100000001000100000000000000000 X
b100 Y
0\
1]
0_
b0 c
b10100 f
b10000 g
b10000 h
b1 k
b1100 o
b1000 u
b0 v
b0 w
b1000 z
b1100000001000100000000000000000 {
b100 |
b10100101101001010101101001011010 }

#60000
0!
01

#65000
1!
0"!
11
b11000 =
b10100 >
b11000 @
b10100 A
b10100 B
b1000 D
b10000 J
b1100 R
b1100 W
b0 X
b1000 Y
0]
b11000 f
b10100 g
b10100 h
b0 k
b10000 o
b1100 u
b1100 z
b0 {
b1000 |
b1000 }

#70000
0!
01

#75000
1!
11
b11100 =
b11000 >
b11100 @
b11000 A
b11000 B
b1100 D
b10100 J
b10000 R
b10000 W
b1100 Y
b11100 f
b11000 g
b11000 h
b10100 o
b10000 u
b10000 z
b1100 |
b1100 }

#80000
0!
01

#85000
1!
11
b100000 =
b11100 >
b100000 @
b11100 A
b11100 B
b10000 D
b11000 J
b10100 R
b10100 W
b10000 Y
b100000 f
b11100 g
b11100 h
b11000 o
b10100 u
b10100 z
b10000 |
b10000 }

#90000
0!
01

#95000
1!
11
b100100 =
b100000 >
b100100 @
b100000 A
b100000 B
bx C
b10100 D
b11100 J
b11000 R
b11000 W
b10100 Y
b100100 f
b100000 g
b100000 h
b11100 o
b11000 u
b11000 z
b10100 |
b10100 }

#100000
0!
01

#105000
1!
x#
bx $
11
bx 3
b101000 =
bx >
bx ?
b101000 @
b100100 A
b100100 B
b11000 D
bx E
bx F
bx G
bx H
bx00 I
b100000 J
bx K
bx M
b11100 R
b11100 W
b11000 Y
bx Z
b101000 f
b100100 g
b100100 h
bx i
bx j
bx l
bx m
bx n
b100000 o
b11100 u
b11100 z
b11000 |
b11000 }

#106000
0"
1#
b0 $
b10000000000 .
b1 /
02
b0 3
b1100100001000100000000000000000 3!
b11001 4!
b1 9!
b10100101101001010101101001011010 :!
b10011000100010000100000010100100011000100111101010011010100010101001101010110110101001000110010001010110011000001011101 ;!
b100 =
b0 >
b0 ?
b100 @
b0 A
b0 B
b1100100001000100000000000000000 C
b0 D
b0 E
b0 F
b0 G
b0 H
b0 I
b0 J
b0 K
b0 M
b0 R
b0 W
b0 Y
b0 Z
b100 f
b0 g
b0 h
b0 i
b0 j
b0 l
b0 m
b0 n
b0 o
b0 u
b0 z
b0 |
b0 }

#110000
0!
01

#115000
1!
11

#120000
0!
01

#123000
1"
12

#125000
1!
0#
b11001 $
1)
1+
1-
1-!
1/!
11
11!
b11001 3
18
1:
1;
b1000 =
b100 >
b101 ?
b1000 @
b100 A
b100 B
b0 C
b101 E
b10010001101000101011001111000 F
b1100100001000100000000000000000 G
b101 K
b1 Z
b1000 f
b100 g
b100 h
b1100100001000100000000000000000 i
b10 j
b0 l
b1 m
b0 n

#126000
b1000 8!

#130000
0!
01

#135000
1!
1#
b0 $
1%!
0)
0+
0-
0-!
0/!
11
01!
b0 3
08
0:
0;
b1100 =
b1000 >
b0 ?
b1100 @
b1000 A
b1000 B
b0 E
b0 F
b0 G
b100 J
b0 K
b101 L
b10010001101000101011001111000 O
b101 P
b1100100001000100000000000000000 S
b0 Z
1`
b1100 f
b1000 g
b1000 h
b0 i
b0 j
b0 l
b0 m
b0 n
b100 o
b1100100001000100000000000000000 p
b101 q
b10010001101000101011001111000 s
b101 t

#140000
0!
01

#145000
1!
0%!
1&!
11
b10000 =
b1100 >
b10000 @
b1100 A
b1100 B
b1000 J
b0 L
b0 O
b0 P
b101 Q
b100 R
b0 S
b1100100001000100000000000000000 T
b10010001101000101011001111000 U
b100 W
0`
1a
b10000 f
b1100 g
b1100 h
b1000 o
b0 p
b0 q
b0 s
b0 t
b100 u
b1100100001000100000000000000000 v
b101 w
b10010001101000101011001111000 x
b100 z

#150000
0!
01

#155000
1!
0&!
11
b10100 =
b10000 >
b10100 @
b10000 A
b10000 B
b100 D
b1100 J
b0 Q
b1000 R
b0 T
b0 U
b1000 W
b1100100001000100000000000000000 X
b100 Y
0a
b10100 f
b10000 g
b10000 h
b1 k
b1100 o
b1000 u
b0 v
b0 w
b0 x
b1000 z
b1100100001000100000000000000000 {
b100 |
b100 }

#160000
0!
01

#165000
1!
11
b11000 =
b10100 >
b11000 @
b10100 A
b10100 B
b1000 D
b10000 J
b1100 R
b1100 W
b0 X
b1000 Y
b11000 f
b10100 g
b10100 h
b0 k
b10000 o
b1100 u
b1100 z
b0 {
b1000 |
b1000 }

#170000
0!
01

#175000
1!
11
b11100 =
b11000 >
b11100 @
b11000 A
b11000 B
b1100 D
b10100 J
b10000 R
b10000 W
b1100 Y
b11100 f
b11000 g
b11000 h
b10100 o
b10000 u
b10000 z
b1100 |
b1100 }

#180000
0!
01

#185000
1!
11
b100000 =
b11100 >
b100000 @
b11100 A
b11100 B
b10000 D
b11000 J
b10100 R
b10100 W
b10000 Y
b100000 f
b11100 g
b11100 h
b11000 o
b10100 u
b10100 z
b10000 |
b10000 }

#190000
0!
01

#195000
1!
11
b100100 =
b100000 >
b100100 @
b100000 A
b100000 B
bx C
b10100 D
b11100 J
b11000 R
b11000 W
b10100 Y
b100100 f
b100000 g
b100000 h
b11100 o
b11000 u
b11000 z
b10100 |
b10100 }

#200000
0!
01

#205000
1!
x#
bx $
11
bx 3
b101000 =
bx >
bx ?
b101000 @
b100100 A
b100100 B
b11000 D
bx E
bx F
bx G
bx H
bx00 I
b100000 J
bx K
bx M
b11100 R
b11100 W
b11000 Y
bx Z
b101000 f
b100100 g
b100100 h
bx i
bx j
bx l
bx m
bx n
b100000 o
b11100 u
b11100 z
b11000 |
b11000 }

#206000
0"
1#
b0 $
b10000000000 .
b10 /
02
b0 3
b1111100001000000000000000000000 3!
b11111 4!
b0 6!
b101 <!
b100 =
b10010001101000101011001111000 =!
b0 >
b10100110101010000100000010011010100010101001101010110110101001000110010001010110011000001011101001111010101001000110001 >!
b0 ?
b100 @
b0 A
b0 B
b1111100001000000000000000000000 C
b0 D
b0 E
b0 F
b0 G
b0 H
b0 I
b0 J
b0 K
b0 M
b0 R
b0 W
b0 Y
b0 Z
b100 f
b0 g
b0 h
b0 i
b0 j
b0 l
b0 m
b0 n
b0 o
b0 u
b0 z
b0 |
b0 }

#210000
0!
01

#215000
1!
11

#220000
0!
01

#223000
1"
12

#225000
1!
b11111 $
b10 &
1(
1)
1*
b10 +!
1,
1.!
1/!
10!
11
12!
b11111 3
b10 5
17
18
19
1<
b1000 =
b100 >
b1000 @
b100 A
b100 B
b0 C
b1111100001000000000000000000000 G
b100 K
b1000 f
b100 g
b100 h
b1111100001000000000000000000000 i
b0 j
b0 l
b1 m
b0 n

#226000
b1001 8!

#230000
0!
01

#235000
1!
1#!
b0 $
b0 &
b10 '!
0(
0)
0*
b0 +!
0,
0.!
0/!
00!
11
02!
b0 3
b0 5
07
08
09
0<
b1100 =
b1000 >
b1100 @
b1000 A
b1000 B
b0 G
b100 J
b0 K
b100 L
b100 P
b1111100001000000000000000000000 S
1[
1^
b10 b
b1100 f
b1000 g
b1000 h
b0 i
b0 j
b0 l
b0 m
b0 n
b100 o
b1111100001000000000000000000000 p
b100 q
b100 t
1~

#240000
0!
01

#245000
1!
1!!
0#!
1$!
b0 '!
b10 (!
11
b10000 =
b1100 >
b10000 @
b1100 A
b1100 B
b1000 J
b0 L
b0 P
b100 Q
b100 R
b0 S
b1111100001000000000000000000000 T
b11011110101011011011111011101111 V
b11011110101011011011111011101111 W
0[
1\
0^
1_
b0 b
b10 c
b10000 f
b1100 g
b1100 h
b1000 o
b0 p
b0 q
b0 t
b100 u
b1111100001000000000000000000000 v
b100 w
b11011110101011011011111011101111 z
0~

#250000
0!
01

#255000
1!
0!!
1"!
0$!
b0 (!
11
b10100 =
b10000 >
b10100 @
b10000 A
b10000 B
b11011110101011011011111011101111 D
b1100 J
b0 Q
b1000 R
b0 T
b0 V
b1000 W
b1111100001000000000000000000000 X
b100 Y
0\
1]
0_
b0 c
b10100 f
b10000 g
b10000 h
b1 k
b1100 o
b1000 u
b0 v
b0 w
b1000 z
b1111100001000000000000000000000 {
b100 |
b11011110101011011011111011101111 }

#260000
0!
01

#265000
1!
0"!
11
b11000 =
b10100 >
b11000 @
b10100 A
b10100 B
b1000 D
b10000 J
b1100 R
b1100 W
b0 X
b1000 Y
0]
b11000 f
b10100 g
b10100 h
b0 k
b10000 o
b1100 u
b1100 z
b0 {
b1000 |
b1000 }

#270000
0!
01

#275000
1!
11
b11100 =
b11000 >
b11100 @
b11000 A
b11000 B
b1100 D
b10100 J
b10000 R
b10000 W
b1100 Y
b11100 f
b11000 g
b11000 h
b10100 o
b10000 u
b10000 z
b1100 |
b1100 }

#280000
0!
01

#285000
1!
11
b100000 =
b11100 >
b100000 @
b11100 A
b11100 B
b10000 D
b11000 J
b10100 R
b10100 W
b10000 Y
b100000 f
b11100 g
b11100 h
b11000 o
b10100 u
b10100 z
b10000 |
b10000 }

#290000
0!
01

#295000
1!
11
b100100 =
b100000 >
b100100 @
b100000 A
b100000 B
bx C
b10100 D
b11100 J
b11000 R
b11000 W
b10100 Y
b100100 f
b100000 g
b100000 h
b11100 o
b11000 u
b11000 z
b10100 |
b10100 }

#300000
0!
01

#305000
1!
x#
bx $
11
bx 3
b101000 =
bx >
bx ?
b101000 @
b100100 A
b100100 B
b11000 D
bx E
bx F
bx G
bx H
bx00 I
b100000 J
bx K
bx M
b11100 R
b11100 W
b11000 Y
bx Z
b101000 f
b100100 g
b100100 h
bx i
bx j
bx l
bx m
bx n
b100000 o
b11100 u
b11100 z
b11000 |
b11000 }

#310000
0!
01

#315000
1!
11
b101100 =
b101100 @
b101000 A
b101000 B
b11100 D
b100100 J
bx L
bx N
bx O
bx P
b100000 R
bx S
b100000 W
b11100 Y
b101100 f
b101000 g
b101000 h
b100100 o
bx p
bx q
bx r
bx s
bx t
b100000 u
b100000 z
b11100 |
b11100 }

#316000
0"
1#
b0 $
b10000000000 .
b11 /
02
b0 3
b11000010110111100000000000110111 3!
b110000 4!
b10110 5!
b11110 6!
b110111 7!
b11011110101011011011111011101111 :!
b1001100010001000101001000100000010100100011000100111101010011010100010101001101010110110011010001011101 ;!
b100 =
b0 >
b0 ?
b100 @
b0 A
b0 B
b1101100101000100000000000000000 C
b0 D
b0 E
b0 F
b0 G
b0 H
b0 I
b0 J
b0 K
b0 L
b0 M
b0 N
b0 O
b0 P
b0 R
b0 S
b0 W
b0 Y
b0 Z
b100 f
b0 g
b0 h
b0 i
b0 j
b0 l
b0 m
b0 n
b0 o
b0 p
b0 q
b0 r
b0 s
b0 t
b0 u
b0 z
b0 |
b0 }

#320000
0!
01

#325000
1!
11

#330000
0!
01

#333000
1"
12

#335000
1!
0#
b11011 $
b10 '
1(
b10 ,!
11
12!
b11011 3
b10 6
17
b1000 =
b100 >
b10000 ?
b10000 @
b100 A
b100 B
b0 C
b10000 E
b1101100101000100000000000000000 G
b10000 K
b10000 f
b100 g
b100 h
b1101100101000100000000000000000 i
b10 j
b0 l
b101 m
b0 n

#336000
b1100 8!

#340000
0!
01

#345000
1!
1#
b0 $
b0 '
0(
b0 ,!
11
02!
b0 3
b0 6
07
b10100 =
b1000 >
b0 ?
b10100 @
b10000 A
b1000 B
b11000010110111100000000000110111 C
b0 E
b0 G
b100 J
b0 K
b10000 L
b10000 P
b1101100101000100000000000000000 S
1[
b10100 f
b10000 g
b1000 h
b0 i
b0 j
b0 l
b0 m
b0 n
b100 o
b1101100101000100000000000000000 p
b10000 q
b10000 t
1~

#350000
0!
01

#355000
1!
1!!
b110000 $
b1 &
1(
1)
b1 +!
1/!
11
12!
b110000 3
b1 5
17
18
b11000 =
b11110000 >
b11000 @
b10100 A
b10100 B
b0 C
b11000010110111100000000000110111 G
b110111 H
b11011100 I
b1000 J
b0 L
b110111 M
b0 P
b10000 Q
b100 R
b0 S
b1101100101000100000000000000000 T
b100 W
0[
1\
b11000 f
b10100 g
b10100 h
b11000010110111100000000000110111 i
b11110 j
b0 l
b10110 m
b110111 n
b1000 o
b0 p
b0 q
b0 t
b100 u
b1101100101000100000000000000000 v
b10000 w
b100 z
0~

#360000
0!
01

#365000
1!
0!!
1"!
b0 $
b0 &
b1 '!
0(
0)
b0 +!
0/!
11
02!
b0 3
b0 5
07
08
b11100 =
b11000 >
b11100 @
b11000 A
b11000 B
b100 D
b0 G
b0 H
b0 I
b10100 J
b0 M
b110111 N
b110111 P
b0 Q
b1000 R
b11000010110111100000000000110111 S
b0 T
b1000 W
b1101100101000100000000000000000 X
b100 Y
1[
0\
1]
b1 b
b11100 f
b11000 g
b11000 h
b0 i
b0 j
b101 k
b0 l
b0 m
b0 n
b10100 o
b11000010110111100000000000110111 p
b110111 r
b110111 t
b1000 u
b0 v
b0 w
b1000 z
b1101100101000100000000000000000 {
b100 |
b100 }
1~

#370000
0!
01

#375000
1!
1!!
0"!
b0 '!
b1 (!
11
b100000 =
b11100 >
b100000 @
b11100 A
b11100 B
b1000 D
b11000 J
b0 N
b0 P
b110111 Q
b10100 R
b0 S
b11000010110111100000000000110111 T
b110111 W
b0 X
b1000 Y
0[
1\
0]
b0 b
b1 c
b100000 f
b11100 g
b11100 h
b0 k
b11000 o
b0 p
b0 r
b0 t
b10100 u
b11000010110111100000000000110111 v
b110111 w
b110111 z
b0 {
b1000 |
b1000 }
0~

#380000
0!
01

#385000
1!
0!!
1"!
b0 (!
11
b100100 =
b100000 >
b100100 @
b100000 A
b100000 B
bx C
b110111 D
b11100 J
b0 Q
b11000 R
b0 T
b11000 W
b11000010110111100000000000110111 X
b10100 Y
0\
1]
b0 c
b100100 f
b100000 g
b100000 h
b10110 k
b11100 o
b11000 u
b0 v
b0 w
b11000 z
b11000010110111100000000000110111 {
b10100 |
b110111 }

#390000
0!
01

#395000
1!
0"!
x#
bx $
11
bx 3
b101000 =
bx >
bx ?
b101000 @
b100100 A
b100100 B
b11000 D
bx E
bx F
bx G
bx H
bx00 I
b100000 J
bx K
bx M
b11100 R
b11100 W
b0 X
b11000 Y
bx Z
0]
b101000 f
b100100 g
b100100 h
bx i
bx j
b0 k
bx l
bx m
bx n
b100000 o
b11100 u
b11100 z
b0 {
b11000 |
b11000 }

#400000
0!
01

#405000
1!
11
b101100 =
b101100 @
b101000 A
b101000 B
b11100 D
b100100 J
bx L
bx N
bx O
bx P
b100000 R
bx S
b100000 W
b11100 Y
b101100 f
b101000 g
b101000 h
b100100 o
bx p
bx q
bx r
bx s
bx t
b100000 u
b100000 z
b11100 |
b11100 }

#410000
0!
01

#415000
1!
11
b110000 =
b110000 @
b101100 A
b101100 B
b100000 D
b101000 J
bx Q
b100100 R
bx T
bx U
b100100 W
b100000 Y
b110000 f
b101100 g
b101100 h
b101000 o
b100100 u
bx v
bx w
bx x
b100100 z
b100000 |
b100000 }

#420000
0!
01

#425000
1!
11
b110100 =
b110100 @
b110000 A
b110000 B
b100100 D
b101100 J
b101000 R
b101000 W
bx X
b100100 Y
b110100 f
b110000 g
b110000 h
bx k
b101100 o
b101000 u
b101000 z
bx {
b100100 |
b100100 }

#430000
0!
01

