Beta_Processor.sim/sim_1/behav/xsim/top_control_hazard.vcd
$date
   Mon Jun 29 19:16:54 2026
$end

$version
  2024.2.0
  $dumpfile ("top_control_hazard.vcd") 
$end

$timescale
  1ps
$end

$scope module tb_Top_Control_Hazard $end
$var reg 1 ! clk $end
$var reg 1 " reset $end
$var wire 1 # z $end
$var wire 6 $ opcode [5:0] $end
$var wire 4 % alufn_debug [3:0] $end
$var wire 2 & wdsel_debug [1:0] $end
$var wire 2 ' pcsel_debug [1:0] $end
$var wire 1 ( werf_debug $end
$var wire 1 ) bsel_debug $end
$var wire 1 * asel_debug $end
$var wire 1 + mwr_debug $end
$var wire 1 , moe_debug $end
$var wire 1 - ra2sel_debug $end
$var integer 32 . i [31:0] $end
$var integer 32 / cycle [31:0] $end
$var integer 32 0 pass_count [31:0] $end
$var integer 32 1 fail_count [31:0] $end
$var integer 32 2 annul_count [31:0] $end
$scope module dut $end
$var wire 1 3 clk $end
$var wire 1 4 reset $end
$var wire 1 # z $end
$var wire 6 $ opcode [5:0] $end
$var wire 4 % alufn_debug [3:0] $end
$var wire 2 & wdsel_debug [1:0] $end
$var wire 2 ' pcsel_debug [1:0] $end
$var wire 1 ( werf_debug $end
$var wire 1 ) bsel_debug $end
$var wire 1 * asel_debug $end
$var wire 1 + mwr_debug $end
$var wire 1 , moe_debug $end
$var wire 1 - ra2sel_debug $end
$var wire 6 5 Out [5:0] $end
$var wire 4 6 alufn [3:0] $end
$var wire 2 7 wdsel [1:0] $end
$var wire 2 8 pcsel [1:0] $end
$var wire 1 9 werf $end
$var wire 1 : bsel $end
$var wire 1 ; asel $end
$var wire 1 < ra2sel $end
$var wire 1 = mwr $end
$var wire 1 > moe $end
$scope module DU $end
$var wire 1 3 clk $end
$var wire 1 4 reset $end
$var wire 4 6 alufn [3:0] $end
$var wire 2 7 wdsel [1:0] $end
$var wire 2 8 pcsel [1:0] $end
$var wire 1 9 werf $end
$var wire 1 : bsel $end
$var wire 1 ; asel $end
$var wire 1 = mwr $end
$var wire 1 > moe $end
$var wire 1 < ra2sel $end
$var wire 1 # z $end
$var wire 6 5 Out [5:0] $end
$var wire 1 ? annul $end
$var wire 32 @ IF_ID_IR_in [31:0] $end
$var wire 32 A PC_plus4 [31:0] $end
$var wire 32 B PC_Adder [31:0] $end
$var wire 32 C JT [31:0] $end
$var wire 32 D PC_in [31:0] $end
$var wire 32 E PC_out [31:0] $end
$var wire 32 F IF_ID_PC_out [31:0] $end
$var wire 32 G IM_out [31:0] $end
$var wire 32 H WD [31:0] $end
$var wire 32 I RD1 [31:0] $end
$var wire 32 J RD2 [31:0] $end
$var wire 32 K IF_ID_IR_out [31:0] $end
$var wire 32 L SXT_out [31:0] $end
$var wire 32 M LS_out [31:0] $end
$var wire 32 N IF_EX_PC_out [31:0] $end
$var wire 32 O A_in [31:0] $end
$var wire 32 P A_out [31:0] $end
$var wire 32 Q B_in [31:0] $end
$var wire 32 R B_out [31:0] $end
$var wire 32 S D_out [31:0] $end
$var wire 32 T Y1_in [31:0] $end
$var wire 32 U Y1_out [31:0] $end
$var wire 32 V EX_MEM_PC_out [31:0] $end
$var wire 32 W ID_EX_IR_out [31:0] $end
$var wire 32 X EX_MEM_IR_out [31:0] $end
$var wire 32 Y D1_out [31:0] $end
$var wire 32 Z RD [31:0] $end
$var wire 32 [ WDSEL_out [31:0] $end
$var wire 32 \ MEM_WB_IR_out [31:0] $end
$var wire 32 ] MEM_WB_PC_out [31:0] $end
$var wire 5 ^ RA2SEL_out [4:0] $end
$var wire 1 _ werf_ex $end
$var wire 1 ` werf_mem $end
$var wire 1 a werf_wb $end
$var wire 1 b moe_ex $end
$var wire 1 c moe_mem $end
$var wire 1 d mwr_ex $end
$var wire 1 e mwr_mem $end
$var wire 2 f wdsel_ex [1:0] $end
$var wire 2 g wdsel_mem [1:0] $end
$var wire 4 h alufn_ex [3:0] $end
$var wire 1 i stall $end
$var wire 32 j ID_EX_IR_in [31:0] $end
$var wire 2 k fwdA [1:0] $end
$var wire 2 l fwdB [1:0] $end
$var wire 32 m RD1_bypass [31:0] $end
$var wire 32 n RD2_bypass [31:0] $end
$var wire 32 o EX_bypass_data [31:0] $end
$var wire 32 p MEM_bypass_data [31:0] $end
$var wire 32 q WB_bypass_data [31:0] $end
$scope module HU $end
$var wire 32 K IF_ID_IR [31:0] $end
$var wire 32 W ID_EX_IR [31:0] $end
$var wire 32 X EX_MEM_IR [31:0] $end
$var wire 32 \ MEM_WB_IR [31:0] $end
$var wire 1 _ werf_ex $end
$var wire 1 ` werf_mem $end
$var wire 1 a werf_wb $end
$var wire 1 i stall $end
$var wire 6 r opcode [5:0] $end
$var wire 5 s src1 [4:0] $end
$var wire 5 t src2 [4:0] $end
$var wire 5 u dest_ex [4:0] $end
$var wire 5 v dest_mem [4:0] $end
$var wire 1 w is_rtype $end
$var wire 1 x is_st $end
$var wire 1 y is_ldr_rf $end
$var wire 1 z src1_used $end
$var wire 1 { src2_used $end
$var wire 1 | is_load_ex $end
$var wire 1 } is_load_mem $end
$var wire 1 ~ h_ex_src1 $end
$var wire 1 !! h_ex_src2 $end
$var wire 1 "! h_mem_src1 $end
$var wire 1 #! h_mem_src2 $end
$upscope $end
$scope module FU $end
$var wire 32 K IF_ID_IR [31:0] $end
$var wire 32 W ID_EX_IR [31:0] $end
$var wire 32 X EX_MEM_IR [31:0] $end
$var wire 32 \ MEM_WB_IR [31:0] $end
$var wire 1 _ werf_ex $end
$var wire 1 ` werf_mem $end
$var wire 1 a werf_wb $end
$var wire 2 f wdsel_ex [1:0] $end
$var wire 2 g wdsel_mem [1:0] $end
$var wire 2 k fwdA [1:0] $end
$var wire 2 l fwdB [1:0] $end
$var wire 6 $! opcode [5:0] $end
$var wire 5 %! src1 [4:0] $end
$var wire 5 &! src2 [4:0] $end
$var wire 5 '! dest_ex [4:0] $end
$var wire 5 (! dest_mem [4:0] $end
$var wire 5 )! dest_wb [4:0] $end
$var wire 1 *! is_rtype $end
$var wire 1 +! is_st $end
$var wire 1 ,! is_ldr $end
$var wire 1 -! src1_used $end
$var wire 1 .! src2_used $end
$var wire 1 /! ex_available $end
$var wire 1 0! mem_available $end
$var wire 1 1! wb_available $end
$var wire 1 2! ex_src1 $end
$var wire 1 3! ex_src2 $end
$var wire 1 4! mem_src1 $end
$var wire 1 5! mem_src2 $end
$var wire 1 6! wb_src1 $end
$var wire 1 7! wb_src2 $end
$upscope $end
$scope module PCSEL_multiplexer $end
$var wire 32 A In0 [31:0] $end
$var wire 32 B In1 [31:0] $end
$var wire 32 C In2 [31:0] $end
$var wire 32 8! In3 [31:0] $end
$var wire 2 8 sel [1:0] $end
$var reg 32 9! Out [31:0] $end
$upscope $end
$scope module PC $end
$var wire 1 3 clk $end
$var wire 1 4 reset $end
$var wire 1 :! en $end
$var wire 32 D D [31:0] $end
$var reg 32 ;! Q [31:0] $end
$upscope $end
$scope module PC_nxt $end
$var wire 32 E PC [31:0] $end
$var wire 32 A PC_next [31:0] $end
$upscope $end
$scope module IF_ID_PC $end
$var wire 1 3 clk $end
$var wire 1 4 reset $end
$var wire 1 :! en $end
$var wire 32 A D [31:0] $end
$var reg 32 <! Q [31:0] $end
$upscope $end
$scope module IM $end
$var wire 32 E Addr [31:0] $end
$var wire 32 G Out [31:0] $end
$upscope $end
$scope module IF_ID_IR $end
$var wire 1 3 clk $end
$var wire 1 4 reset $end
$var wire 1 :! en $end
$var wire 32 @ D [31:0] $end
$var reg 32 =! Q [31:0] $end
$upscope $end
$scope module RF $end
$var wire 1 3 clk $end
$var wire 5 >! RA1 [20:16] $end
$var wire 5 ^ RA2 [4:0] $end
$var wire 5 ?! WA [25:21] $end
$var wire 1 a WE $end
$var wire 32 H WD [31:0] $end
$var wire 32 I RD1 [31:0] $end
$var wire 32 J RD2 [31:0] $end
$upscope $end
$scope module RA2SEL_mux $end
$var wire 5 @! In0 [15:11] $end
$var wire 5 A! In1 [25:21] $end
$var wire 1 < sel $end
$var wire 5 ^ Out [4:0] $end
$upscope $end
$scope module SXT $end
$var wire 16 B! In [15:0] $end
$var wire 32 L Out [31:0] $end
$upscope $end
$scope module Left_2 $end
$var wire 32 L In [31:0] $end
$var wire 32 M Out [31:0] $end
$upscope $end
$scope module Add $end
$var wire 32 M In0 [31:0] $end
$var wire 32 F In1 [31:0] $end
$var wire 32 B Out [31:0] $end
$upscope $end
$scope module N $end
$var wire 32 m In [31:0] $end
$var wire 1 # Out $end
$upscope $end
$scope module ASEL_mux $end
$var wire 32 m In0 [31:0] $end
$var wire 32 B In1 [31:0] $end
$var wire 1 ; sel $end
$var wire 32 O Out [31:0] $end
$upscope $end
$scope module BSEL_mux $end
$var wire 32 n In0 [31:0] $end
$var wire 32 L In1 [31:0] $end
$var wire 1 : sel $end
$var wire 32 Q Out [31:0] $end
$upscope $end
$scope module ID_EX_PC $end
$var wire 1 3 clk $end
$var wire 1 4 reset $end
$var wire 32 F D [31:0] $end
$var reg 32 C! Q [31:0] $end
$upscope $end
$scope module ID_EX_IR $end
$var wire 1 3 clk $end
$var wire 1 4 reset $end
$var wire 32 j D [31:0] $end
$var reg 32 D! Q [31:0] $end
$upscope $end
$scope module A $end
$var wire 1 3 clk $end
$var wire 1 4 reset $end
$var wire 32 O D [31:0] $end
$var reg 32 E! Q [31:0] $end
$upscope $end
$scope module B $end
$var wire 1 3 clk $end
$var wire 1 4 reset $end
$var wire 32 Q D [31:0] $end
$var reg 32 F! Q [31:0] $end
$upscope $end
$scope module D $end
$var wire 1 3 clk $end
$var wire 1 4 reset $end
$var wire 32 n D [31:0] $end
$var reg 32 G! Q [31:0] $end
$upscope $end
$scope module alu $end
$var wire 4 h alufn [3:0] $end
$var wire 32 P A [31:0] $end
$var wire 32 R B [31:0] $end
$var reg 32 H! Y [31:0] $end
$upscope $end
$scope module EX_MEM_PC $end
$var wire 1 3 clk $end
$var wire 1 4 reset $end
$var wire 32 N D [31:0] $end
$var reg 32 I! Q [31:0] $end
$upscope $end
$scope module EX_MEM_IR $end
$var wire 1 3 clk $end
$var wire 1 4 reset $end
$var wire 32 W D [31:0] $end
$var reg 32 J! Q [31:0] $end
$upscope $end
$scope module Y1 $end
$var wire 1 3 clk $end
$var wire 1 4 reset $end
$var wire 32 T D [31:0] $end
$var reg 32 K! Q [31:0] $end
$upscope $end
$scope module D1 $end
$var wire 1 3 clk $end
$var wire 1 4 reset $end
$var wire 32 S D [31:0] $end
$var reg 32 L! Q [31:0] $end
$upscope $end
$scope module DM $end
$var wire 1 3 clk $end
$var wire 32 Y WD [31:0] $end
$var wire 32 U Addr [31:0] $end
$var wire 1 e RW $end
$var wire 1 c OE $end
$var wire 32 Z RD [31:0] $end
$upscope $end
$scope module WDSEL_mux $end
$var wire 32 V In0 [31:0] $end
$var wire 32 U In1 [31:0] $end
$var wire 32 Z In2 [31:0] $end
$var wire 32 M! In3 [31:0] $end
$var wire 2 g sel [1:0] $end
$var reg 32 N! Out [31:0] $end
$upscope $end
$scope module MEM_WB_IR $end
$var wire 1 3 clk $end
$var wire 1 4 reset $end
$var wire 32 X D [31:0] $end
$var reg 32 O! Q [31:0] $end
$upscope $end
$scope module MEM_WB_PC $end
$var wire 1 3 clk $end
$var wire 1 4 reset $end
$var wire 32 V D [31:0] $end
$var reg 32 P! Q [31:0] $end
$upscope $end
$scope module Y2 $end
$var wire 1 3 clk $end
$var wire 1 4 reset $end
$var wire 32 [ D [31:0] $end
$var reg 32 Q! Q [31:0] $end
$upscope $end
$scope module WERF1 $end
$var wire 1 3 clk $end
$var wire 1 4 reset $end
$var wire 1 R! D $end
$var reg 1 S! Q $end
$upscope $end
$scope module WERF2 $end
$var wire 1 3 clk $end
$var wire 1 4 reset $end
$var wire 1 _ D $end
$var reg 1 T! Q $end
$upscope $end
$scope module WERF3 $end
$var wire 1 3 clk $end
$var wire 1 4 reset $end
$var wire 1 ` D $end
$var reg 1 U! Q $end
$upscope $end
$scope module MOE1 $end
$var wire 1 3 clk $end
$var wire 1 4 reset $end
$var wire 1 V! D $end
$var reg 1 W! Q $end
$upscope $end
$scope module MOE2 $end
$var wire 1 3 clk $end
$var wire 1 4 reset $end
$var wire 1 b D $end
$var reg 1 X! Q $end
$upscope $end
$scope module MWR1 $end
$var wire 1 3 clk $end
$var wire 1 4 reset $end
$var wire 1 Y! D $end
$var reg 1 Z! Q $end
$upscope $end
$scope module MWR2 $end
$var wire 1 3 clk $end
$var wire 1 4 reset $end
$var wire 1 d D $end
$var reg 1 [! Q $end
$upscope $end
$scope module WDSEL1 $end
$var wire 1 3 clk $end
$var wire 1 4 reset $end
$var wire 2 \! D [1:0] $end
$var reg 2 ]! Q [1:0] $end
$upscope $end
$scope module WDSEL2 $end
$var wire 1 3 clk $end
$var wire 1 4 reset $end
$var wire 2 f D [1:0] $end
$var reg 2 ^! Q [1:0] $end
$upscope $end
$scope module ALUFN1 $end
$var wire 1 3 clk $end
$var wire 1 4 reset $end
$var wire 4 _! D [3:0] $end
$var reg 4 `! Q [3:0] $end
$upscope $end
$upscope $end
$scope module CU $end
$var wire 1 # z $end
$var wire 6 5 op [5:0] $end
$var reg 4 a! alufn [3:0] $end
$var reg 2 b! wdsel [1:0] $end
$var reg 2 c! pcsel [1:0] $end
$var reg 1 d! ra2sel $end
$var reg 1 e! asel $end
$var reg 1 f! bsel $end
$var reg 1 g! moe $end
$var reg 1 h! mwr $end
$var reg 1 i! werf $end
$upscope $end
$upscope $end
$scope function C $end
$var reg 32 j! C [31:0] $end
$var reg 6 k! op [5:0] $end
$var reg 5 l! rc [4:0] $end
$var reg 5 m! ra [4:0] $end
$var reg 16 n! lit [15:0] $end
$upscope $end
$scope task clear_all $end
$upscope $end
$scope task apply_reset $end
$upscope $end
$scope task print_cycle $end
$var reg 256 o! test_name [255:0] $end
$upscope $end
$scope task run_cycles $end
$var integer 32 p! n [31:0] $end
$var reg 256 q! test_name [255:0] $end
$upscope $end
$scope task check_reg $end
$var reg 5 r! reg_no [4:0] $end
$var reg 32 s! expected [31:0] $end
$var reg 256 t! name [255:0] $end
$upscope $end
$scope task check_annul_zero $end
$var reg 256 u! name [255:0] $end
$upscope $end
$scope task check_annul_happened $end
$var reg 256 v! name [255:0] $end
$upscope $end
$scope task test_BEQ_not_taken $end
$upscope $end
$scope task test_BEQ_taken $end
$upscope $end
$scope task test_BNE_not_taken $end
$upscope $end
$scope task test_BNE_taken $end
$upscope $end
$scope task test_JMP $end
$upscope $end
$upscope $end
$enddefinitions $end

#0
$dumpvars
0!
0!!
0"
0"!
1#
0#!
b0 $
b0 $!
b0 %
b0 %!
b0 &
b0 &!
b0 '
b0 '!
0(
b0 (!
0)
b0 )!
0*
0*!
0+
0+!
0,
0,!
0-
1-!
b10000000000 .
0.!
b0 /
0/!
b0 0
00!
b0 1
01!
b0 2
02!
03
03!
04
04!
b0 5
05!
b0 6
06!
b0 7
07!
b0 8
b0 8!
09
b100 9!
0:
1:!
0;
b0 ;!
0<
b0 <!
0=
b0 =!
0>
b0 >!
0?
b0 ?!
b1110000101000100000000000000110 @
b0 @!
b100 A
b0 A!
b0 B
b0 B!
b0 C
b0 C!
b100 D
b0 D!
b0 E
b0 E!
b0 F
b0 F!
b1110000101000100000000000000110 G
b0 G!
b0 H
b0 H!
b0 I
b0 I!
b0 J
b0 J!
b0 K
b0 K!
b0 L
b0 L!
b0 M
b0 M!
b0 N
b0 N!
b0 O
b0 O!
b0 P
b0 P!
b0 Q
b0 Q!
b0 R
0R!
b0 S
0S!
b0 T
0T!
b0 U
0U!
b0 V
0V!
b0 W
0W!
b0 X
0X!
b0 Y
0Y!
b0 Z
0Z!
b0 [
0[!
b0 \
b0 \!
b0 ]
b0 ]!
b0 ^
b0 ^!
0_
b0 _!
0`
b0 `!
0a
b0 a!
0b
b0 b!
0c
b0 c!
0d
0d!
0e
0e!
b0 f
0f!
b0 g
0g!
b0 h
0h!
0i
0i!
b0 j
b11000001011111110000000000010110 j!
b0 k
b110000 k!
b0 l
b1011 l!
b0 m
b11111 m!
b0 n
b10110 n!
b0 o
bx o!
b0 p
bx p!
b0 q
bx q!
b0 r
bx r!
b0 s
bx s!
b0 t
bx t!
b0 u
bx u!
b0 v
bx v!
0w
0x
0y
1z
0{
0|
0}
0~
$end

#5000
1!
13

#10000
0!
03

#15000
1!
13

#16000
1"
b0 .
14
b1001 p!
b1000010010001010101000101011111010011100100111101010100010111110101010001000001010010110100010101001110 q!

#20000
0!
03

#25000
1!
0#
b11100 $
b11100 $!
b10 %!
13
b11100 5
b1000 9!
b100 ;!
b100 <!
b1110000101000100000000000000110 =!
b10 >!
b11000001010111110000000000001011 @
b0 @!
b1000 A
b101 A!
b11100 B
b110 B!
b1001 C
b1000 D
b100 E
b100 F
b11000001010111110000000000001011 G
b1001 I
b1110000101000100000000000000110 K
b110 L
b11000 M
b1001 O
b1110000101000100000000000000110 j
b1001 m
b11100 r
b10 s

#26000
b1 .
b1 /
b1000010010001010101000101011111010011100100111101010100010111110101010001000001010010110100010101001110 o!

#30000
0!
03

#35000
1!
1#
b110000 $
b110000 $!
b11111 %!
b1 &
b101 '!
1(
1)
13
b110000 5
b1 7
19
b1100 9!
1:
b1000 ;!
b1000 <!
b11000001010111110000000000001011 =!
b11111 >!
b10000011111111111111100000000000 @
b0 @!
b1100 A
b1010 A!
b110100 B
b1011 B!
b0 C
b100 C!
b1100 D
b1110000101000100000000000000110 D!
b1000 E
b1001 E!
b1000 F
b10000011111111111111100000000000 G
b1001 H!
b0 I
b11000001010111110000000000001011 K
b1011 L
b101100 M
b100 N
b0 O
b1001 P
b1011 Q
1R!
b1001 T
b1110000101000100000000000000110 W
b1 \!
b1 b!
1f!
1i!
b11000001010111110000000000001011 j
b0 m
b100 o
b110000 r
b11111 s
b101 u

#36000
b10 .
b10 /

#40000
0!
03

#45000
1!
b100000 $
b100000 $!
b11111 &!
b1010 '!
b101 (!
0)
1*!
1.!
1/!
13
b100000 5
b10000 9!
0:
b1100 ;!
b1100 <!
b10000011111111111111100000000000 =!
b11111 >!
b11111 @!
b10000 A
b11111 A!
b11111111111111111110000000001100 B
b1111100000000000 B!
b1000 C!
b10000 D
b11000001010111110000000000001011 D!
b1100 E
b0 E!
b1100 F
b1011 F!
b1011 H!
b100 I!
b1110000101000100000000000000110 J!
b10000011111111111111100000000000 K
b1001 K!
b11111111111111111111100000000000 L
b11111111111111111110000000000000 M
b1000 N
b100 N!
b0 P
b0 Q
b1011 R
1S!
b1011 T
b1001 U
b100 V
b11000001010111110000000000001011 W
b1110000101000100000000000000110 X
b100 [
b1 ]!
b11111 ^
1_
b1 b!
b1 f
0f!
1i!
b10000011111111111111100000000000 j
b1011 o
b100 p
b100000 r
b11111 t
b1010 u
b101 v
1w
1{

#46000
b11 .
b11 /

#50000
0!
03

#55000
1!
b11111 '!
b1010 (!
b101 )!
10!
13
b10100 9!
b10000 ;!
b10000 <!
b101 ?!
b10100 A
b11111111111111111110000000010000 B
b1100 C!
b10100 D
b10000011111111111111100000000000 D!
b10000 E
b10000 F
b0 F!
b100 H
b0 H!
b1000 I!
b11000001010111110000000000001011 J!
b1011 K!
b1100 N
b1011 N!
b1110000101000100000000000000110 O!
b100 P!
b100 Q!
b0 R
b0 T
1T!
b1011 U
b1000 V
b10000011111111111111100000000000 W
b11000001010111110000000000001011 X
b1011 [
b1110000101000100000000000000110 \
b100 ]
b1 ^!
1`
b1 g
b0 o
b1011 p
b100 q
b11111 u
b1010 v

#56000
b100 .
b100 /

#60000
0!
03

#65000
1!
b11111 (!
b1010 )!
11!
13
b11000 9!
b10100 ;!
b10100 <!
b1010 ?!
b11000 A
b11111111111111111110000000010100 B
b10000 C!
b11000 D
b10100 E
b10100 F
b1011 H
b1100 I!
b10000011111111111111100000000000 J!
b0 K!
b10000 N
b0 N!
b11000001010111110000000000001011 O!
b1000 P!
b1011 Q!
b0 U
1U!
b1100 V
b10000011111111111111100000000000 X
b0 [
b11000001010111110000000000001011 \
b1000 ]
1a
b0 p
b1011 q
b11111 v

#66000
b101 .
b101 /

#70000
0!
03

#75000
1!
b11111 )!
13
b11100 9!
b11000 ;!
b11000 <!
b11111 ?!
b11100 A
b11111111111111111110000000011000 B
b10100 C!
b11100 D
b11000 E
b11000 F
b0 H
b10000 I!
b10100 N
b10000011111111111111100000000000 O!
b1100 P!
b0 Q!
b10000 V
b10000011111111111111100000000000 \
b1100 ]
b0 q

#76000
b110 .
b110 /

#80000
0!
03

#85000
1!
13
b100000 9!
b11100 ;!
b11100 <!
b11000001011111110000000000010110 @
b100000 A
b11111111111111111110000000011100 B
b11000 C!
b100000 D
b11100 E
b11100 F
b11000001011111110000000000010110 G
b10100 I!
b11000 N
b10000 P!
b10100 V
b10000 ]

#86000
b111 .
b111 /

#90000
0!
03

#95000
1!
b110000 $
b110000 $!
b0 &!
1)
0*!
0.!
13
b110000 5
b100100 9!
1:
b100000 ;!
b100000 <!
b11000001011111110000000000010110 =!
b11111 >!
bx @
b0 @!
b100100 A
b1011 A!
b1111000 B
b10110 B!
b11100 C!
b100100 D
b100000 E
b100000 F
bx G
b11000 I!
b11000001011111110000000000010110 K
b10110 L
b1011000 M
b11100 N
b10100 P!
b10110 Q
b11000 V
b10100 ]
b0 ^
b1 b!
1f!
1i!
b11000001011111110000000000010110 j
b110000 r
b0 t
0w
0{

#96000
b1000 .
b1000 /

#100000
0!
03

#105000
1!
x#
bx $
bx $!
bx %!
b0 &
bx &!
b1011 '!
0(
0)
x*!
x+!
x,!
x-!
x.!
x2!
13
x3!
bx 5
b0 7
09
b101000 9!
0:
b100100 ;!
b100100 <!
bx =!
bx >!
bx @!
b101000 A
bx A!
bx B
bx B!
bx C
b100000 C!
b101000 D
b11000001011111110000000000010110 D!
b100100 E
b100100 F
b10110 F!
b10110 H!
bx I
b11100 I!
bx J
bx K
bx L
bx00 M
b100000 N
bx O
b11000 P!
bx Q
b10110 R
0R!
b10110 T
b11100 V
b11000001011111110000000000010110 W
b0 \!
b11000 ]
bx ^
b0 b!
0f!
0i!
bx j
b0x k
b0x l
bx m
bx n
b10110 o
bx r
bx s
bx t
b1011 u
xw
xx
xy
xz
x{

#106000
0"
1#
b0 $
b0 $!
b0 %!
b0 &!
b0 '!
b0 (!
b0 )!
0*!
0+!
0,!
1-!
b10000000000 .
0.!
b0 /
0/!
b10 0
00!
b1 1
01!
02!
03!
04
b0 5
b100 9!
b0 ;!
b0 <!
b0 =!
b0 >!
b0 ?!
b1110000101000100000000000000110 @
b0 @!
b100 A
b0 A!
b0 B
b0 B!
b0 C
b0 C!
b100 D
b0 D!
b0 E
b0 F
b0 F!
b1110000101000100000000000000110 G
b0 H!
b0 I
b0 I!
b0 J
b0 J!
b0 K
b0 L
b0 M
b0 N
b0 O
b0 O!
b0 P!
b0 Q
b0 R
0S!
b0 T
0T!
0U!
b0 V
b0 W
b0 X
b0 \
b0 ]
b0 ]!
b0 ^
b0 ^!
0_
0`
0a
b0 f
b0 g
b0 j
b11000001011111110000000000010110 j!
b0 k
b110000 k!
b0 l
b1011 l!
b0 m
b11111 m!
b0 n
b10110 n!
b0 o
b0 r
b1010 r!
b0 s
b1011 s!
b0 t
b100001001000101010100010010000001101110011011110111010000100000011101000110000101101011011001010110111000100000011001100110000101101100011011000010110101110100011010000111001001101111011101010110011101101000 t!
b0 u
b1000010010001010101000100100000011011100110111101110100001000000111010001100001011010110110010101101110001000000110111001101111001000000110000101101110011011100111010101101100 u!
b0 v
0w
0x
0y
1z
0{

#110000
0!
03

#115000
1!
13

#120000
0!
03

#125000
1!
13

#126000
1"
b0 .
14
b1100 p!
b10000100100010101010001010111110101010001000001010010110100010101001110 q!

#130000
0!
03

#135000
1!
b11100 $
b11100 $!
b10 %!
b1 '
1(
13
b11100 5
b1 8
19
b11100 9!
b100 ;!
b100 <!
b1110000101000100000000000000110 =!
b10 >!
1?
b10000011111111111111100000000000 @
b0 @!
b1000 A
b101 A!
b11100 B
b110 B!
b11100 D
b100 E
b100 F
b11000001010111110000000000001011 G
b1110000101000100000000000000110 K
b110 L
b11000 M
1R!
b1 c!
1i!
b1110000101000100000000000000110 j
b11100 r
b10 s

#136000
b1 .
b1 /
b1 2
b10000100100010101010001010111110101010001000001010010110100010101001110 o!

#140000
0!
03

#145000
1!
b100000 $
b100000 $!
b11111 %!
b1 &
b11111 &!
b0 '
b101 '!
1*!
1.!
1/!
13
b100000 5
b1 7
b0 8
b100000 9!
b11100 ;!
b1000 <!
b10000011111111111111100000000000 =!
b11111 >!
0?
b11000001011111110000000000010110 @
b11111 @!
b100000 A
b11111 A!
b11111111111111111110000000001000 B
b1111100000000000 B!
b100 C!
b100000 D
b1110000101000100000000000000110 D!
b11100 E
b1000 F
b11000001011111110000000000010110 G
b10000011111111111111100000000000 K
b11111111111111111111100000000000 L
b11111111111111111110000000000000 M
b100 N
1S!
b1110000101000100000000000000110 W
b1 \!
b11111 ^
1_
b1 b!
b0 c!
1i!
b10000011111111111111100000000000 j
b100 o
b100000 r
b11111 s
b11111 t
b101 u
1w
1{

#146000
b10 .
b10 /

#150000
0!
03

#155000
1!
b110000 $
b110000 $!
b0 &!
b11111 '!
b101 (!
1)
0*!
0.!
10!
13
b110000 5
b100100 9!
1:
b100000 ;!
b100000 <!
b11000001011111110000000000010110 =!
b11111 >!
bx @
b0 @!
b100100 A
b1011 A!
b1111000 B
b10110 B!
b1000 C!
b100100 D
b10000011111111111111100000000000 D!
b100000 E
b100000 F
bx G
b100 I!
b1110000101000100000000000000110 J!
b11000001011111110000000000010110 K
b10110 L
b1011000 M
b1000 N
b100 N!
b10110 Q
1T!
b100 V
b10000011111111111111100000000000 W
b1110000101000100000000000000110 X
b100 [
b1 ]!
b0 ^
1`
b1 b!
b1 f
1f!
1i!
b11000001011111110000000000010110 j
b0 o
b100 p
b110000 r
b0 t
b11111 u
b101 v
0w
0{

#156000
b11 .
b11 /

#160000
0!
03

#165000
1!
x#
bx $
bx $!
bx %!
b0 &
bx &!
b1011 '!
0(
b11111 (!
0)
b101 )!
x*!
x+!
x,!
x-!
x.!
11!
x2!
13
x3!
bx 5
x6!
b0 7
x7!
09
b101000 9!
0:
b100100 ;!
b100100 <!
bx =!
bx >!
b101 ?!
bx @!
b101000 A
bx A!
bx B
bx B!
bx C
b100000 C!
b101000 D
b11000001011111110000000000010110 D!
b100100 E
b100100 F
b10110 F!
b100 H
b10110 H!
bx I
b1000 I!
bx J
b10000011111111111111100000000000 J!
bx K
bx L
bx00 M
b100000 N
b0 N!
bx O
b1110000101000100000000000000110 O!
b100 P!
bx Q
b100 Q!
b10110 R
0R!
b10110 T
1U!
b1000 V
b11000001011111110000000000010110 W
b10000011111111111111100000000000 X
b0 [
b1110000101000100000000000000110 \
b0 \!
b100 ]
bx ^
b1 ^!
1a
b0 b!
0f!
b1 g
0i!
bx j
bx k
bx l
bx m
bx n
b10110 o
b0 p
b100 q
bx r
bx s
bx t
b1011 u
b11111 v
xw
xx
xy
xz
x{

#166000
b100 .
b100 /

#170000
0!
03

#175000
1!
bx '!
b1011 (!
b11111 )!
0/!
02!
13
03!
x4!
x5!
06!
07!
b101100 9!
b101000 ;!
b101000 <!
b11111 ?!
b101100 A
b100100 C!
b101100 D
bx D!
b101000 E
bx E!
b101000 F
bx F!
bx G!
b0 H
bx H!
b100000 I!
b11000001011111110000000000010110 J!
b10110 K!
b100100 N
b10110 N!
b10000011111111111111100000000000 O!
bx P
b1000 P!
b0 Q!
bx R
bx S
0S!
bx T
b10110 U
b100000 V
bx W
b11000001011111110000000000010110 X
b10110 [
b10000011111111111111100000000000 \
b1000 ]
b0 ]!
0_
b0 f
bx0 k
bx0 l
b100100 o
b10110 p
b0 q
bx u
b1011 v
x|

#176000
b101 .
b101 /

#180000
0!
03

#185000
1!
bx (!
b1011 )!
00!
13
04!
05!
x6!
x7!
b110000 9!
b101100 ;!
b101100 <!
b1011 ?!
b110000 A
b101000 C!
b110000 D
b101100 E
b101100 F
b10110 H
b100100 I!
bx J!
bx K!
bx L!
b101000 N
b100100 N!
b11000001011111110000000000010110 O!
b100000 P!
b10110 Q!
0T!
bx U
b100100 V
bx X
bx Y
b100100 [
b11000001011111110000000000010110 \
b100000 ]
b0 ^!
0`
b0 g
bx k
bx l
b101000 o
b100100 p
b10110 q
bx v
x}

#186000
b110 .
b110 /

#190000
0!
03

#195000
1!
bx )!
01!
13
06!
07!
b110100 9!
b110000 ;!
b110000 <!
bx ?!
b110100 A
b101100 C!
b110100 D
b110000 E
b110000 F
b100100 H
b101000 I!
b101100 N
b101000 N!
bx O!
b100100 P!
b100100 Q!
0U!
b101000 V
b101000 [
bx \
b100100 ]
0a
b0 k
b0 l
b101100 o
b101000 p
b100100 q

#196000
b111 .
b111 /

#200000
0!
03

#205000
1!
13
b111000 9!
b110100 ;!
b110100 <!
b111000 A
b110000 C!
b111000 D
b110100 E
b110100 F
b101000 H
b101100 I!
b110000 N
b101100 N!
b101000 P!
b101000 Q!
b101100 V
b101100 [
b101000 ]
b110000 o
b101100 p
b101000 q

#206000
b1000 .
b1000 /

#210000
0!
03

#215000
1!
13
b111100 9!
b111000 ;!
b111000 <!
b111100 A
b110100 C!
b111100 D
b111000 E
b111000 F
b101100 H
b110000 I!
b110100 N
b110000 N!
b101100 P!
b101100 Q!
b110000 V
b110000 [
b101100 ]
b110100 o
b110000 p
b101100 q

#216000
b1001 .
b1001 /

#220000
0!
03

#225000
1!
13
b1000000 9!
b111100 ;!
b111100 <!
b1000000 A
b111000 C!
b1000000 D
b111100 E
b111100 F
b110000 H
b110100 I!
b111000 N
b110100 N!
b110000 P!
b110000 Q!
b110100 V
b110100 [
b110000 ]
b111000 o
b110100 p
b110000 q

